<?xml version="1.0" encoding="utf-8"?>
<!-- Generator: Adobe Illustrator 23.0.6, SVG Export Plug-In . SVG Version: 6.00 Build 0)  -->
<svg version="1.1" id="Layer_1" xmlns="http://www.w3.org/2000/svg" xmlns:xlink="http://www.w3.org/1999/xlink" x="0px" y="0px"
	 viewBox="0 0 1920 1080" style="enable-background:new 0 0 1920 1080;" xml:space="preserve">
<style type="text/css">
	.st0{fill:#1CFF36;}
	.st1{enable-background:new    ;}
	.st2{fill:#E4E4E4;}
	.st3{clip-path:url(#SVGID_2_);}
	.st4{fill:#FFFFFF;}
	.st5{fill:none;stroke:#1CFF36;stroke-width:7;}
</style>
<g>
	<g id="zed" transform="translate(887.633 1)">
		<g>
			<path class="st0" d="M258.8,530.8h-372.8V158h372.8V530.8z M-105.1,521.8h354.8V167h-354.8V521.8z"/>
		</g>
	</g>
	<g class="st1">
		<path class="st0" d="M864,587.8c0.7-0.1,1.1-0.1,1.5-0.1c5.4,0,9.6,4,9.6,9.3c0,5.2-4.2,9.4-9.5,9.4c-2.5,0-4.8-1-6.6-2.7
			c-1.4-1.3-2.1-2.7-2.1-3.8c0-1.6,1.2-2.8,2.8-2.8c0.8,0,1.4,0.2,1.9,0.7c0.2,0.2,0.3,0.3,0.8,1.1c0.8,1.3,1.9,1.9,3.2,1.9
			c2.1,0,3.7-1.7,3.7-3.7c0-2.6-2.3-4.2-6.1-4.2c-0.7,0-1.4,0-1.9,0.1c-0.5,0.1-0.8,0.1-0.9,0.1c-1.5,0-2.5-0.9-2.5-2.3
			c0-0.2,0-0.5,0-0.8l0.9-6l0.1-0.6c0.3-1.9,1.4-2.7,3.7-2.7h8.1h0.6c1.8,0,2.9,1.1,2.9,2.7s-1.2,2.7-2.9,2.7h-0.6h-6.3L864,587.8z"
			/>
		<path class="st0" d="M903.5,593.3c0,7.2-5.8,13.1-13,13.1s-13.1-5.9-13.1-13.1c0-7.2,5.9-13,13-13
			C897.6,580.3,903.5,586.2,903.5,593.3z M883.1,593.3c0,4.1,3.2,7.4,7.3,7.4c4,0,7.3-3.3,7.3-7.3c0-4-3.3-7.3-7.3-7.3
			C886.4,586.1,883.1,589.3,883.1,593.3z"/>
		<path class="st0" d="M931.9,593.3c0,7.2-5.8,13.1-13,13.1s-13.1-5.9-13.1-13.1c0-7.2,5.9-13,13-13
			C926,580.3,931.9,586.2,931.9,593.3z M911.5,593.3c0,4.1,3.2,7.4,7.3,7.4c4,0,7.3-3.3,7.3-7.3c0-4-3.3-7.3-7.3-7.3
			C914.8,586.1,911.5,589.3,911.5,593.3z"/>
		<path class="st2" d="M960.5,600.7h0.6c1.8,0,2.9,1.1,2.9,2.7c0,1.6-1.2,2.7-2.9,2.7h-0.6h-13.4c-2.1,0-3.4-1.1-3.4-2.9
			c0-0.7,0.2-1.3,0.7-2l11-15.2h-8.2h-0.6c-1.8,0-3-1.1-3-2.7c0-1.6,1.2-2.7,3-2.7h0.6h12.5c1.1,0,1.8,0.1,2.3,0.3
			c1,0.4,1.7,1.6,1.7,2.7c0,0.6-0.3,1.4-0.8,2.1L952,600.7H960.5z"/>
		<path class="st2" d="M973.4,590.7h5.9h0.5c1.6,0,2.7,0.9,2.7,2.4c0,1.4-1.1,2.4-2.7,2.4h-0.5h-5.9v5.2h7.7h0.6c1.8,0,3,1.1,3,2.7
			c0,1.6-1.2,2.7-3,2.7h-0.6h-9.5H971c-2.2,0-3.4-1.2-3.4-3.4V602v-17.2v-0.7c0-2.2,1.2-3.4,3.4-3.4h0.7h9.3h0.6
			c1.8,0,2.9,1.1,2.9,2.7s-1.2,2.7-2.9,2.7h-0.6h-7.5V590.7z"/>
		<path class="st2" d="M987.9,584.8v-0.7c0-2.2,1.2-3.4,3.4-3.4h0.7h4.9c3.9,0,6.3,0.7,8.7,2.6c3.1,2.5,4.9,6.2,4.9,10.1
			c0,4.4-2.3,8.5-6.1,10.8c-2,1.2-4.4,1.8-7.5,1.8H992h-0.7c-2.2,0-3.4-1.2-3.4-3.4V602V584.8z M996.2,600.7c2.5,0,4-0.3,5.2-1.1
			c2-1.3,3.3-3.6,3.3-6.2c0-4.4-3.4-7.3-8.5-7.3h-2.5v14.6H996.2z"/>
		<path class="st2" d="M1030.2,585.2c0,1.5-1.1,2.7-2.5,2.7c-0.5,0-1-0.2-1.4-0.5c-0.1,0-0.6-0.5-1.3-1c-1-0.8-2-1.2-3-1.2
			c-1.6,0-2.8,1.1-2.8,2.3s0.8,1.9,3.1,2.4c2.2,0.5,3.8,1.1,5.1,1.7c2.7,1.3,4.1,3.6,4.1,6.5c0,4.9-3.8,8.3-9.2,8.3
			c-4.9,0-9.3-2.9-9.3-6.2c0-1.5,1.2-2.8,2.6-2.8c1.1,0,1.9,0.4,3.1,1.5c1.5,1.4,2.7,1.9,4,1.9c1.7,0,3-1.2,3-2.7
			c0-1.3-0.9-2.2-3-2.8l-2.5-0.7c-1.9-0.5-3.4-1.2-4.3-1.9c-1.5-1-2.4-2.8-2.4-5.1c0-4.4,3.6-7.4,8.8-7.4
			C1026.6,580.3,1030.2,582.5,1030.2,585.2z"/>
	</g>
	<g id="giphy" transform="translate(887.633 497.655)">
		<g>
			<g>
				<defs>
					<rect id="SVGID_1_" x="-114.1" y="158" width="372.8" height="88.8"/>
				</defs>
				<clipPath id="SVGID_2_">
					<use xlink:href="#SVGID_1_"  style="overflow:visible;"/>
				</clipPath>
				<g class="st3">
					<g>
						<defs>
							<rect id="SVGID_3_" x="48.3" y="235.1" width="372.8" height="372.8"/>
						</defs>
						<clipPath id="SVGID_4_">
							<use xlink:href="#SVGID_3_"  style="overflow:visible;"/>
						</clipPath>
						<g style="clip-path:url(#SVGID_4_);enable-background:new    ;">
							
								<image style="overflow:visible;" width="288" height="288" xlink:href="74B015ED8412BF67.png"  transform="matrix(1.2946 0 0 1.2946 234.7393 883.2322)">
							</image>
						</g>
					</g>
				</g>
				<g class="st3">
					<g>
						<defs>
							<rect id="SVGID_5_" x="48.3" y="-137.7" width="372.8" height="372.8"/>
						</defs>
						<clipPath id="SVGID_6_">
							<use xlink:href="#SVGID_5_"  style="overflow:visible;"/>
						</clipPath>
						<g style="clip-path:url(#SVGID_6_);enable-background:new    ;">
							
								<image style="overflow:visible;" width="288" height="288" xlink:href="74B015ED8412BF65.png"  transform="matrix(1.2946 0 0 1.2946 234.7393 510.3902)">
							</image>
						</g>
					</g>
				</g>
				<g class="st3">
					<g>
						<defs>
							<rect id="SVGID_7_" x="-324.5" y="235.1" width="372.8" height="372.8"/>
						</defs>
						<clipPath id="SVGID_8_">
							<use xlink:href="#SVGID_7_"  style="overflow:visible;"/>
						</clipPath>
						<g style="clip-path:url(#SVGID_8_);enable-background:new    ;">
							
								<image style="overflow:visible;" width="288" height="288" xlink:href="74B015ED8412BF6B.png"  transform="matrix(1.2946 0 0 1.2946 -138.1027 883.2322)">
							</image>
						</g>
					</g>
				</g>
				<g class="st3">
					<g>
						<defs>
							<rect id="SVGID_9_" x="-324.5" y="-137.7" width="372.8" height="372.8"/>
						</defs>
						<clipPath id="SVGID_10_">
							<use xlink:href="#SVGID_9_"  style="overflow:visible;"/>
						</clipPath>
						<g style="clip-path:url(#SVGID_10_);enable-background:new    ;">
							
								<image style="overflow:visible;" width="288" height="288" xlink:href="74B015ED8412BF6D.png"  transform="matrix(1.2946 0 0 1.2946 -138.1027 510.3902)">
							</image>
						</g>
					</g>
				</g>
			</g>
		</g>
		<g>
			<path class="st0" d="M258.8,246.8h-372.8V158h372.8V246.8z M-107.1,239.8h358.8V165h-358.8V239.8z"/>
		</g>
	</g>
	<g class="st1">
		<path class="st0" d="M935.5,713.8h-7c-0.4,0-0.6-0.1-0.8-0.3c-0.2-0.2-0.3-0.5-0.3-0.8c0-0.4,0.1-0.7,0.3-0.9
			c0.2-0.2,0.8-0.2,1.6-0.2h0.5v-14.1h-0.5c-0.8,0-1.3-0.1-1.5-0.2c-0.2-0.2-0.3-0.5-0.3-0.9c0-0.4,0.1-0.6,0.3-0.8
			c0.2-0.2,0.5-0.3,0.8-0.3h7.3c2.2,0,3.9,0.4,5,1.3s1.7,2.1,1.7,3.7c0,0.8-0.2,1.5-0.5,2.2c-0.4,0.6-0.9,1.1-1.6,1.5
			c1.1,0.4,2,1,2.5,1.7c0.5,0.7,0.8,1.7,0.8,2.8c0,0.9-0.2,1.8-0.7,2.6s-1.1,1.4-2,1.9c-0.5,0.3-1.1,0.5-1.7,0.6
			c-0.6,0.1-1.5,0.2-2.7,0.2H935.5z M932.3,703.3h3.3c1.5,0,2.6-0.2,3.3-0.7c0.7-0.5,1.1-1.2,1.1-2.2c0-0.9-0.3-1.6-1-2.1
			c-0.6-0.5-1.6-0.7-2.8-0.7h-3.9V703.3z M932.3,711.6h3.5c2,0,3.3-0.2,4.1-0.7c0.8-0.5,1.2-1.3,1.2-2.5c0-1.2-0.4-2-1.1-2.5
			c-0.8-0.5-2.1-0.7-4-0.7h-3.6V711.6z"/>
		<path class="st0" d="M948.1,697.6h-0.2c-0.6,0-1.1-0.1-1.3-0.2c-0.2-0.2-0.4-0.5-0.4-0.9c0-0.4,0.1-0.7,0.3-0.9
			c0.2-0.2,0.5-0.3,0.9-0.3h0.7h3.2c0.8,0,1.4,0.1,1.6,0.2c0.2,0.2,0.3,0.5,0.3,0.9c0,0.4-0.1,0.7-0.4,0.9c-0.3,0.2-0.8,0.2-1.5,0.2
			h-0.7v8.6c0,1.2,0.1,2,0.2,2.5c0.1,0.5,0.3,1,0.5,1.4c0.4,0.6,0.9,1.1,1.5,1.5c0.6,0.4,1.4,0.5,2.2,0.5c1.5,0,2.6-0.4,3.3-1.3
			c0.7-0.9,1-2.3,1-4.3v-8.9h-0.8c-0.8,0-1.3-0.1-1.6-0.2c-0.3-0.2-0.4-0.5-0.4-0.9c0-0.4,0.1-0.7,0.3-0.9c0.2-0.2,0.7-0.2,1.4-0.2
			h3.4h0.7c0.4,0,0.7,0.1,0.8,0.3s0.3,0.5,0.3,0.8c0,0.4-0.1,0.7-0.3,0.9c-0.2,0.2-0.6,0.2-1.2,0.2h-0.2v9.2c0,2.5-0.6,4.4-1.7,5.7
			c-1.1,1.3-2.8,1.9-5.1,1.9c-2.1,0-3.7-0.6-4.9-1.9c-1.2-1.3-1.8-3-1.8-5.1V697.6z"/>
		<path class="st0" d="M977.5,711.6c0.8,0,1.3,0.1,1.5,0.2c0.2,0.2,0.3,0.4,0.3,0.9c0,0.4-0.1,0.7-0.3,0.9c-0.2,0.2-0.7,0.2-1.4,0.2
			h-7.4c-0.7,0-1.1-0.1-1.3-0.2c-0.2-0.2-0.3-0.5-0.3-0.9c0-0.4,0.1-0.7,0.4-0.9c0.2-0.2,0.8-0.2,1.5-0.2h2.3v-5.2l-5.2-8.9h-0.3
			c-0.6,0-1.1-0.1-1.3-0.2c-0.2-0.2-0.3-0.5-0.3-0.9c0-0.4,0.1-0.7,0.3-0.9c0.2-0.2,0.5-0.3,0.9-0.3h0.7h3.6c0.6,0,1,0.1,1.2,0.2
			c0.2,0.2,0.3,0.5,0.3,0.9c0,0.4-0.1,0.7-0.4,0.9c-0.3,0.2-0.7,0.2-1.4,0.2h-0.5l3.8,6.8l3.9-6.8h-0.6c-0.6,0-1-0.1-1.2-0.2
			c-0.2-0.2-0.3-0.5-0.3-0.9c0-0.4,0.1-0.7,0.3-0.9s0.7-0.2,1.4-0.2h0.4h2.5c0.8,0,1.3,0.1,1.5,0.2c0.2,0.2,0.3,0.5,0.3,0.9
			c0,0.4-0.1,0.7-0.3,0.9c-0.2,0.2-0.6,0.2-1.3,0.2h-0.2l-5.3,9.1v5H977.5z"/>
	</g>
	<g class="st1">
		<path class="st4" d="M892.3,786.2c0-1.2,0-2.6,0.1-4c0.1-1.4,0.4-2.7,1-3.9c0.6-1.2,1.5-2.2,2.7-3c1.2-0.8,2.9-1.2,5.1-1.1
			c1.5,0,2.8,0.3,3.8,0.8c1,0.5,1.8,1.2,2.4,2c0.6,0.8,1.1,1.7,1.4,2.7c0.3,1,0.5,1.9,0.6,2.8c0.1,0.9,0.1,1.6,0.1,2.3
			c0,0.6,0,1,0,1.1l-5.2,0c-0.1-1.2-0.2-2.2-0.4-3.2c-0.2-0.8-0.5-1.6-0.9-2.2c-0.4-0.7-1-1-1.7-1c-1.2,0-2.1,0.5-2.8,1.6
			c-0.6,1-0.9,2.7-0.8,5.1c0,1.2,0.2,2.2,0.5,3.1c0.3,0.9,0.8,1.8,1.5,2.7c0.6,0.9,1.4,1.7,2.4,2.6c0.9,0.9,2,1.9,3.2,3
			c1.3,1.2,2.3,2.5,3.1,4.1c0.8,1.6,1.4,3.2,1.7,4.9c0.3,1.7,0.4,3.4,0.2,5.1c-0.2,1.7-0.7,3.2-1.4,4.5c-0.7,1.3-1.7,2.4-2.9,3.2
			s-2.7,1.2-4.5,1.3c-0.9,0-1.8-0.1-2.9-0.2c-1-0.1-2-0.6-3-1.3c-1-0.8-1.8-1.9-2.5-3.6c-0.7-1.6-1.1-3.9-1.3-6.9l5.5,0
			c0.3,1.6,0.6,2.9,0.9,3.8c0.3,0.9,0.6,1.6,0.9,2.1c0.3,0.5,0.6,0.7,1,0.8c0.4,0.1,0.8,0.2,1.2,0.2c1,0,1.9-0.5,2.5-1.6
			c0.6-1,1-2.3,1.1-3.8c0.1-1.5-0.1-3-0.5-4.6c-0.5-1.6-1.2-2.9-2.4-4c-1.5-1.4-2.9-2.6-4.1-3.8s-2.2-2.3-3-3.5s-1.4-2.4-1.8-3.7
			C892.6,789.3,892.3,787.9,892.3,786.2z M899.2,823.9l-0.1-52.5l3.5,0l0.1,52.5L899.2,823.9z"/>
		<path class="st4" d="M911.7,784.2c0-1.4,0.2-2.6,0.7-3.8c0.5-1.2,1.1-2.3,1.9-3.2c0.8-0.9,1.8-1.7,3.1-2.2
			c1.2-0.5,2.6-0.8,4.2-0.8c1.5,0,2.9,0.3,4,0.8c1.2,0.5,2.1,1.3,2.9,2.2c0.8,0.9,1.4,2,1.8,3.2c0.4,1.2,0.6,2.5,0.6,3.8l0,10.4
			l0,1.7c0,0.5-0.1,1.2-0.4,2.2c-0.2,1-0.6,2-1,3.3c-0.4,1.2-0.8,2.5-1.3,3.9c-0.5,1.4-1,2.8-1.5,4.2c-1.2,3.2-2.6,6.7-4.2,10.6
			l-5.4,0l6.2-16.3c-0.1,0.1-0.4,0.3-0.8,0.6c-0.4,0.3-0.9,0.4-1.3,0.4c-1.3,0-2.6-0.2-3.7-0.6c-1.1-0.4-2.1-1.1-3-2
			c-0.9-0.9-1.5-2-2-3.4c-0.5-1.3-0.8-2.9-0.8-4.8L911.7,784.2z M917.2,794.6c0,1.9,0.3,3.2,0.9,4.1c0.6,0.9,1.8,1.3,3.5,1.3
			c1.4,0,2.5-0.5,3-1.3c0.6-0.9,0.9-2.4,0.9-4.5l0-10c0-1.2-0.3-2.2-0.9-3.2c-0.6-1-1.6-1.5-3-1.4c-0.9,0-1.6,0.2-2.1,0.5
			c-0.6,0.3-1,0.7-1.4,1.2c-0.4,0.5-0.6,1-0.7,1.5c-0.1,0.5-0.2,1.1-0.2,1.5L917.2,794.6z"/>
		<path class="st4" d="M932.4,784.1c0-1.4,0.2-2.6,0.7-3.8c0.5-1.2,1.1-2.3,1.9-3.2c0.8-0.9,1.8-1.7,3.1-2.2
			c1.2-0.5,2.6-0.8,4.2-0.8c1.5,0,2.9,0.3,4,0.8c1.2,0.5,2.1,1.3,2.9,2.2c0.8,0.9,1.4,2,1.8,3.2c0.4,1.2,0.6,2.5,0.6,3.8l0,10.4
			l0,1.7c0,0.5-0.1,1.2-0.4,2.2c-0.2,1-0.6,2-1,3.3c-0.4,1.2-0.8,2.5-1.3,3.9c-0.5,1.4-1,2.8-1.5,4.2c-1.2,3.2-2.6,6.7-4.2,10.6
			l-5.4,0L944,804c-0.1,0.1-0.4,0.3-0.8,0.6c-0.4,0.3-0.9,0.4-1.3,0.4c-1.3,0-2.6-0.2-3.7-0.6c-1.1-0.4-2.1-1.1-3-2
			c-0.9-0.9-1.5-2-2-3.4c-0.5-1.3-0.8-2.9-0.8-4.8L932.4,784.1z M937.8,794.5c0,1.9,0.3,3.2,0.9,4.1c0.6,0.9,1.8,1.3,3.5,1.3
			c1.4,0,2.5-0.5,3-1.3c0.6-0.9,0.9-2.4,0.9-4.5l0-10c0-1.2-0.3-2.2-0.9-3.2c-0.6-1-1.6-1.5-3-1.4c-0.9,0-1.6,0.2-2.1,0.5
			c-0.6,0.3-1,0.7-1.4,1.2c-0.4,0.5-0.6,1-0.7,1.5c-0.1,0.5-0.2,1.1-0.2,1.6L937.8,794.5z"/>
		<path class="st4" d="M954.4,820.2l0-6.2l6.2,0l0,6.2L954.4,820.2z"/>
		<path class="st4" d="M964.3,784c0-1.4,0.2-2.6,0.7-3.8c0.5-1.2,1.1-2.3,1.9-3.2c0.8-0.9,1.8-1.7,3.1-2.2c1.2-0.5,2.6-0.8,4.2-0.8
			c1.5,0,2.9,0.3,4,0.8c1.2,0.5,2.1,1.3,2.9,2.2c0.8,0.9,1.4,2,1.8,3.2c0.4,1.2,0.6,2.5,0.6,3.8l0,10.4l0,1.7c0,0.5-0.1,1.2-0.4,2.2
			c-0.2,1-0.6,2-1,3.3c-0.4,1.2-0.8,2.5-1.3,3.9c-0.5,1.4-1,2.8-1.5,4.2c-1.2,3.2-2.6,6.7-4.2,10.6l-5.4,0l6.2-16.3
			c-0.1,0.1-0.4,0.3-0.8,0.6c-0.4,0.3-0.9,0.4-1.3,0.4c-1.3,0-2.6-0.2-3.7-0.6c-1.1-0.4-2.1-1.1-3-2c-0.8-0.9-1.5-2-2-3.4
			c-0.5-1.3-0.8-2.9-0.8-4.8L964.3,784z M969.7,794.4c0,1.9,0.3,3.2,0.9,4.1c0.6,0.9,1.8,1.3,3.5,1.3c1.4,0,2.5-0.5,3-1.3
			c0.6-0.9,0.9-2.4,0.9-4.5l0-10c0-1.2-0.3-2.2-0.9-3.2c-0.6-1-1.6-1.5-3-1.4c-0.9,0-1.6,0.2-2.1,0.5c-0.6,0.3-1,0.7-1.4,1.2
			c-0.4,0.5-0.6,1-0.7,1.5c-0.1,0.5-0.2,1.1-0.2,1.6L969.7,794.4z"/>
		<path class="st4" d="M985,784c0-1.4,0.2-2.6,0.7-3.8c0.5-1.2,1.1-2.3,1.9-3.2c0.8-0.9,1.8-1.7,3.1-2.2c1.2-0.5,2.6-0.8,4.2-0.8
			c1.5,0,2.9,0.3,4,0.8c1.2,0.5,2.1,1.3,2.9,2.2c0.8,0.9,1.4,2,1.8,3.2c0.4,1.2,0.6,2.5,0.6,3.8l0,10.4l0,1.7c0,0.5-0.1,1.2-0.4,2.2
			c-0.2,1-0.6,2-1,3.3c-0.4,1.2-0.8,2.5-1.3,3.9c-0.5,1.4-1,2.8-1.5,4.2c-1.2,3.2-2.6,6.7-4.2,10.6l-5.4,0l6.2-16.3
			c-0.1,0.1-0.4,0.3-0.8,0.6c-0.4,0.3-0.9,0.4-1.3,0.4c-1.3,0-2.6-0.2-3.7-0.6c-1.1-0.4-2.1-1.1-3-2c-0.8-0.9-1.5-2-2-3.4
			c-0.5-1.3-0.8-2.9-0.8-4.8L985,784z M990.4,794.4c0,1.9,0.3,3.2,0.9,4.1c0.6,0.9,1.8,1.3,3.5,1.3c1.4,0,2.5-0.5,3-1.3
			c0.6-0.9,0.9-2.4,0.9-4.5l0-10c0-1.2-0.3-2.2-0.9-3.2c-0.6-1-1.6-1.5-3-1.4c-0.9,0-1.6,0.2-2.1,0.5c-0.6,0.3-1,0.7-1.4,1.2
			c-0.4,0.5-0.6,1-0.7,1.5c-0.1,0.5-0.2,1.1-0.2,1.5L990.4,794.4z"/>
	</g>
	<g>
		<path class="st5" d="M993.3,419.4v19.8h-78.1v-19.8l52.4-143.3h-50.2v-19.8h74.9v19.8l-52.9,143.3H993.3z"/>
	</g>
</g>
</svg>
