<?xml version="1.0" encoding="utf-8"?>
<!-- Generator: Adobe Illustrator 23.0.6, SVG Export Plug-In . SVG Version: 6.00 Build 0)  -->
<svg version="1.1" id="Layer_1" xmlns="http://www.w3.org/2000/svg" xmlns:xlink="http://www.w3.org/1999/xlink" x="0px" y="0px"
	 viewBox="0 0 500 300" style="enable-background:new 0 0 500 300;" xml:space="preserve">
<style type="text/css">
	.st0{enable-background:new    ;}
	.st1{fill:#00FF80;}
	.st2{fill:#DE0066;}
</style>
<g class="st0">
	<path class="st1" d="M-241.2-77.8c-1.8,2-3.2,3.2-4.4,3.6c-0.5,0.1-1.1,0.2-2,0.3c-0.9,0-1.6,0.1-2,0.3c-0.9,0.3-1.5,0.8-1.9,1.7
		c-0.2-0.1-1.1-0.6-2.8-1.3c-0.8-1.9-1.6-4.2-2.3-6.9c-1.4-5.5-2.3-8.8-2.7-9.9c-0.8-2.5-3-8.7-6.4-18.6c-0.3-0.9-0.8-2.1-1.5-3.8
		c-0.7-1.7-1.3-3-1.6-3.9c-0.2-0.6-0.5-1-0.9-1.2c-0.5,1.8-0.6,5.2-0.6,10.1l0.5,1.5c0,1.1,0,2.6,0.2,4.5c0.5,2.3,1.2,6.3,2.2,12.1
		c-0.2,1.2,0.1,3.3,0.7,6.3l1.4,7c0.2,1.1,0.5,2.2,0.8,3.3c0.3,1.4,0.4,2.4,0.2,3.1c-0.4,1.1-1.1,1.9-2,2.2c-0.2,0.1-0.4,0.1-0.6,0
		c-0.2-0.1-0.4-0.1-0.5,0c-0.6,0.2-0.7,0.7-0.5,1.5c-0.1,0-0.2,0-0.4-0.2c-0.2-0.1-0.5-0.2-0.8-0.1c-0.2,0.1-0.4,0.2-0.4,0.5
		c0,0.3-0.1,0.4-0.3,0.5l-1.5-0.1c-0.7-0.3-1.7-0.8-3-1.7c-0.2-0.4-0.5-1-0.8-1.9l-0.6-1.9c-1.7-2.6-4.9-7.4-9.4-14.5
		c-1.2-2-3.3-5.7-6.3-10.9c-2.4-4-4.9-7.6-7.7-10.7l-1.3,0.4c0.4,0.3,0.7,0.9,0.9,1.6c0.1,0.4,0.3,1.3,0.6,2.8
		c0.2,1.2,0.5,2.1,0.8,2.7c1.3,2.1,2.3,4.4,3.3,7c0.9,2.6,1.6,4.4,2.1,5.4c1,1.8,1.6,2.9,1.6,3.2c0.1,0.8,1.2,4,3.2,9.6l1.1,0.8
		c-0.1,0.4,0.1,1.6,0.8,3.5c0,0.1,0.2,0.3,0.4,0.6c0.3,0.4,0.5,0.7,0.5,1c0.1,0.3,0.3,0.7,0.5,1.3l0.5,1.4c0.8,2.5-0.3,4.4-3.2,5.7
		c-1.7,0.7-4.1,1.7-7.4,3c0-0.1,0-0.2,0-0.6c0-0.2,0-0.3-0.1-0.4c-0.1,0-0.8-0.6-2.1-1.8c-0.1-0.4-0.2-0.8-0.3-1.3
		c-0.9-0.7-1.3-1.2-1.4-1.3c-0.1-0.3-0.1-0.5,0.1-0.7l0.2-0.2c-0.9-3.7-1.8-7.2-2.9-10.5c-0.8-2.6-1.7-5.1-2.7-7.3
		c0-0.7-0.1-1.6-0.3-2.7c-0.6-1.6-2-5.4-4.1-11.3l-6.6-18.4c-0.4-1.1-1.1-2.7-2.2-4.9c-1-2-1.7-3.6-2.1-4.8
		c-0.1-0.4-0.2-1.5-0.4-3.4c0-1.1,0-1.7,0-2.1c0-0.8,0.4-1.4,0.9-1.7c3-1.7,6.5-3.3,10.7-4.7c3.4-1.1,5.5-1,6.3,0.5
		c0.2,0.9,0.7,2.3,1.5,3.9c1.1,1.2,2.6,3.1,4.5,5.8c0.1,0.9,0.4,2.2,0.8,3.9l1.2,1c0.2,0.3,0.2,0.8,0,1.5c0,0.1,0.2,0.2,0.7,0.2
		c0.5,0,0.8,0.1,0.9,0.1c0.2,0.4,0.4,0.7,0.6,1.1c0.2,0.7,0.2,1.4-0.1,2c0.1,0,0.4,0.1,1.1,0.5c0.5,1.3,1.6,3.5,3.5,6.6
		c-0.2,0.1-0.4,0.2-0.7,0.5c1.4,0.6,2.1,1,2.3,1.4c0.1,0.2,0.1,0.5,0,0.9c-0.4-0.4-1.1-0.7-2-1.1c0,0.4,0.1,0.9,0.2,1.2
		c0.5,1.4,1.5,2.8,3,4.1c-0.1,0.4-0.2,0.9-0.2,1.8l0.5,1.5c0.2,0.1,0.5,0.1,0.7,0.1c0.3-0.1,0.4-0.3,0.3-0.5
		c0.2,0.1,0.3,0.5,0.6,1.1c-0.1,0-0.4-0.1-0.9-0.4c-0.2,0.5-0.2,1.1,0,1.9c0.3,0.8,0.5,1.3,0.7,1.4c0.2,0.2,0.6,0.1,1.4-0.1
		c1.3-0.4,1.9-1.3,1.8-2.6c-0.1-0.3-0.3-0.7-0.6-1.1c0.3-0.4,0.9-0.9,1.8-1.5c0-0.1,0-0.4-0.1-0.9c-0.1-0.2-0.1-0.4,0-0.6
		c0.3-0.2,0.6-0.3,0.7-0.3l0.5,1.4c-0.1,0.1-0.3,0.4-0.5,0.8l1-0.3l0.2,0.5l-1.2,0.4l-0.1-0.3l-0.9,1.7c0.2,0.1,0.4,0.1,0.7,0
		c0.5-0.2,0.7-0.6,0.5-1.2c0.3,0.9,0.7,1.2,1.3,1c0.2-0.1,0.4-0.4,0.7-0.9c0.2,0.7,0.2,1.1-0.2,1.2c-0.4,0.1-0.6,0.3-0.6,0.6
		c0,0.1,0.3,0.3,0.6,0.5l-0.7,0.2c-0.4,0.2-0.7,0.3-0.9,0.4c0,0.1,0,0.2,0,0.5c0,0.3,0,0.5,0.1,0.6l0.3,0c0.2-0.1,0.3-0.2,0.5-0.3
		l1,0.6c-0.7,0.3-1.7,0.6-3,1l-0.1-0.3c-0.1-0.1-0.3-0.1-0.5,0c-0.4,0.1-1,0.4-1.8,0.9c-0.8,0.4-1.4,0.7-1.8,0.9
		c0.1,0,0.9,0.3,2.4,0.9c-0.1,0-0.3,0.1-0.6,0.1c-0.3,0-0.6,0-0.7,0.1c0.4,0.6,1,2.1,1.7,4.3c0.4-0.8,0.6-1.1,0.7-1.2
		c-0.1,0.2-0.3,0.8-0.6,1.8c0.1,0.6,0.5,1,1.1,1.3c0,0.5,0,0.9-0.2,1.3c-0.1-0.5-0.5-0.8-0.9-1.1c-0.1,0.2,0,0.4,0.1,0.8
		c0.1,0.2,0.8,0.7,2.3,1.5c-0.1-0.3-0.1-0.9-0.1-1.8c0.1-0.9,0-1.5-0.1-1.9c0.3,0.2,0.6,0.2,0.8,0.1c0.2-0.1,0.3-0.2,0.4-0.4
		c-0.3,0-0.8-0.4-1.4-1.1c-0.2,0-0.4,0-0.4-0.1c0-0.1,0-0.2,0-0.4c0.1,0.2,0.3,0.4,0.5,0.5l0.2-0.1c0.2-0.2,0.6-0.8,1.2-1.7l0.3,0.9
		c0.3-0.1,0.9-0.2,1.6-0.3c0.7-0.1,1.3-0.2,1.6-0.3c0.2,0.6,0.1,0.9-0.4,1.1l-0.6,1.1c1.4,1.2,2.3,1.7,2.6,1.6
		c0.2,0.3,0.4,0.9,0.6,1.6c-0.5-0.1-1-0.3-1.5-0.5c0,0.2-0.1,0.5-0.2,0.9c0.3,0,0.8,0.5,1.8,1.3c-0.1,0.1-0.5,0.5-1.3,1.4
		c0.6,0.3,1.4,1.1,2.4,2.5c0.3-0.3,0.7-0.9,1.3-1.8l-0.3-1c-0.4,0.3-0.6,0.6-0.5,0.7l-1.2,0.4l0.4-1.1c1-0.5,1.2-1.4,0.8-2.8
		c-0.3-0.9-0.8-1.4-1.4-1.5c-0.1-0.1-0.3-0.5-0.5-1.2c0.5-0.1,1-0.3,1.5-0.7c-0.5-0.2-0.8-0.3-1.1-0.2c0.1-0.5,0.3-1.4,0.4-2.7
		c-0.1,0-0.2,0-0.5,0.2c-0.2,0.1-0.4,0-0.5-0.3l0.4-0.5c0.2-0.8,0.1-1.9-0.3-3.2c-0.1-0.2-0.3-0.5-0.8-0.9c-0.5-0.4-0.7-0.8-0.8-1.1
		c-0.1-0.3,0-0.5,0.3-0.6l0.4-0.2c-0.5-0.8-0.5-1.6,0-2.5l-1.3-4c-0.6-0.4-1.5-0.8-2.6-1.3c0.6-0.2,1.2-0.2,1.6,0
		c0.2-0.2,0.2-0.6,0.1-1.1c-0.1-0.5-0.1-0.9,0.1-1.1c-0.4-0.3-1.3-0.8-2.5-1.3c0.5-0.1,1-0.1,1.4-0.3c0-0.1,0.1-0.3,0.1-0.5
		l-0.5-1.5l0.2-0.3l-0.5-1.5c-0.3-0.4-0.8-0.7-1.5-0.7l-0.7-1c0.3,0.1,0.7,0.1,1.1-0.1c0.4-0.1,0.8-0.4,1.3-0.7
		c0.1-0.2-0.1-0.4-0.7-0.5c-0.6-0.1-0.9-0.2-0.9-0.2c-0.4-0.5-0.8-1.4-1.2-2.5c-0.5-1.5-0.3-2.6,0.6-3.2c-0.2-0.1-0.4-0.2-0.5-0.1
		c-0.2,0.1-0.4,0.3-0.5,0.6c0,0.1,0.1-0.3,0.3-1.2c-0.1,0.1-0.3,0.2-0.6,0.3c-0.2,0.1-0.3,0-0.3-0.2c0-0.2-0.1-0.3-0.3-0.2
		c-0.2,0.1-0.4,0.2-0.6,0.4c-0.3,0.2-0.4,0.3-0.5,0.3c-0.2-0.8-0.1-1.5,0.4-2l1.1-1.4c-0.1-0.1-0.3-0.3-0.7-0.6
		c-0.3,0.5-0.5,0.8-0.6,0.8c-0.4-0.7-0.7-1.4-1-2.2c-0.2-0.6-0.6-2.8-1-6.6c0-0.2-0.1-0.4-0.3-0.8c-0.2-0.3-0.4-0.6-0.4-0.8
		c-1-3.1-1.3-5.2-1-6.5c0.5-1.6,2.1-3.1,5-4.4c1-0.4,4.2-1.6,9.6-3.3c2.6-0.8,4.5,0.7,5.8,4.7c0.4,1.1,0.8,2.9,1.2,5.2
		c0.4,2.3,0.8,4.1,1.2,5.2c3.7,11.3,6.8,20.2,9.1,26.7C-247.6-92.7-243.9-83.4-241.2-77.8z M-313.6-123.5c-0.6-0.5-1.6-0.9-3.1-1.3
		l0.7,2.1c0.2-0.1,0.6,0,1.2,0.3C-314.6-123.1-314.3-123.4-313.6-123.5z M-314.2-121.5l-0.7-0.3l-0.2,0.5l0.7,0.3L-314.2-121.5z
		 M-312.8-123l-0.2-0.5l-1.1,0.4l0.2,0.5L-312.8-123z M-311.6-117.3c-0.7-0.9-1.4-1.5-2.2-1.9l0.5,1.4
		C-312.6-117.3-312-117.2-311.6-117.3z M-311.7-123.3l-0.5,0.1l-0.2,0.9l0.5,0L-311.7-123.3z M-310.2-115.2l-0.2-0.5l-1.3,0.8
		l0.2,0.6L-310.2-115.2z M-310.4-112.8l-0.3-0.4l-0.6,0.7l0.1,0.4L-310.4-112.8z M-309.3-106.6l-0.3-0.4l-0.7,0.6l0.2,0.5
		L-309.3-106.6z M-308.2-105c-0.3-0.1-0.8-0.2-1.4-0.4c0.9,1.7,1.4,2.8,1.4,3.2C-308.3-102.8-308.3-103.7-308.2-105z M-305.2-127.5
		c-0.5,0-0.8-0.2-1-0.6l-0.4-1.4c-0.5,0.2-0.9,0.5-1.2,1c-0.5-0.5-0.9-0.7-1.3-0.6c0.1,0.2,0.1,0.5,0.1,0.9c0,0.4,0.1,0.7,0.1,0.9
		c-0.6,0.8-0.8,1.2-0.7,1.4c0.4,0.2,1,0.4,1.6,0.8c-0.1,0.4-0.2,0.6-0.1,0.8c0.1,0.2,0.2,0.3,0.3,0.4
		C-307.1-124.8-306.3-125.9-305.2-127.5z M-307.1-106.9c-1.3,0.7-2,1.1-2.2,1.2c0.6-0.2,1.3-0.2,2-0.1
		C-307.1-106.1-307-106.5-307.1-106.9z M-302.9-115.4c-0.2,0.1-0.5,0.1-1-0.1c-0.4-0.1-0.7-0.1-1-0.1l-0.5,0.2
		c-0.2-0.4-0.8-0.4-1.7-0.1c0.2,0.6,0.5,1.5,1,2.5c-0.2,0.6-0.2,1.1-0.1,1.4c0.5,0.2,1,0.3,1.6,0.1c0.3,0,0.6,0.4,0.9,1.3
		c0.2,0.7,0.1,1.6-0.5,2.7c0.5,0.3,1.3,0.5,2.3,0.7l-0.4-1.2c-0.2,0.1-0.4,0.1-0.7,0c0.3-0.3,0.8-0.8,1.3-1.4c0-0.1-0.3-0.4-0.7-0.7
		c-0.4-0.4-0.6-0.6-0.7-0.8c0-0.1,0-0.2,0.2-0.3c-0.2-0.1-0.5-0.2-0.9-0.4c0.3-0.4,0.7-1,1.1-1.8c-0.3,0-0.8-0.1-1.5-0.2
		L-302.9-115.4z M-304.7-126.8c-0.2,0.2-0.7,0.9-1.3,2c0.3-0.1,0.8-0.4,1.2-0.8C-304.6-126.1-304.6-126.5-304.7-126.8z
		 M-304.5-109.8l-1-0.6l-0.2,0.5l1,0.5L-304.5-109.8z M-298.2-125c-0.5,0.2-0.8,0.1-0.9-0.3l0.6,1.9c-0.1-0.2,0-0.5,0.1-0.9
		C-298.2-124.7-298.1-125-298.2-125z M-291.9-77.4c-0.3-1-0.8-1.6-1.4-1.8c0-1.2-0.4-2.6-1.1-4.1c-0.7-1.5-1.3-2.2-1.9-2.3l0.7,1.5
		c-0.3-0.2-0.6-0.2-0.8-0.1c-0.3,0.1-0.6,0.6-0.8,1.4c-0.3,0.8-0.4,1.3-0.5,1.4l1.2-0.4c0.4-0.8,0.6-1.2,0.5-1.2
		c0.4,1.2,0.3,2.6-0.2,4.2c0.3,0.2,0.4,0.4,0.5,0.6c0.1,0.2,0,0.3-0.1,0.5c0.7,0.5,1.3,1,1.7,1.5c-0.4,0.4-0.6,0.6-0.6,0.8
		c0,0.1,0.1,0.4,0.4,0.8c-0.1,0.2-0.3,0.5-0.6,1c-0.2-0.2-0.5-0.2-0.8-0.1c0.1,0.4,0.5,0.5,1,0.3c0.3-0.1,0.7,0,1.1,0.2l-0.1,1.3
		c0,0.2,0,0.3,0.1,0.5c0.1,0.2,0.1,0.3,0.3,0.5c0.6-0.4,1.3-1,2-1.7l0.8,0.4c0.1-0.3,0.1-0.5,0-0.8c-0.3-0.9-1.2-1.4-2.8-1.7
		c-0.3-1-0.5-2.1-0.8-3.3c0.7,0.1,1.1,0.3,1.2,0.5c-0.1-0.3-0.1,0-0.1,1c0.8,0.4,1.3,0.7,1.4,1.1c-0.1-0.2-0.1-0.5-0.1-0.9
		C-291.8-76.8-291.8-77.2-291.9-77.4z M-295.5-118.4l-0.5,0.2l0.2,1.9l0.5-0.2L-295.5-118.4z M-294.8-80.4l-0.1,1l-0.5-0.1l0.2-0.9
		L-294.8-80.4z M-293.9-107.2l-0.4-1.2l-0.5,0.2l0.4,1.2L-293.9-107.2z M-288.1-67c-0.3,0-0.7-0.2-1.2-0.4c0.1-0.3,0.1-0.6,0-0.9
		c-0.2,0.2-0.4,0.4-0.6,0.5c-0.1,0-0.2,0-0.3,0l0.6-1.3l-2.5-0.5c0.1-0.4,0.1-0.6,0-0.8c-0.2-0.3-0.2-0.5-0.2-0.6
		c-0.3,0.1-0.7,0.4-1.4,0.9c0.5,0,0.8,0.2,1,0.3c0.1,0.2,0.2,0.4,0.3,0.8c0.1,0.2,0.1,0.4,0.1,0.6c0.4-0.3,0.7-0.5,0.9-0.6
		c0.2-0.1,0.4-0.1,0.6,0c-0.3,0.7-0.7,1.8-1.4,3.2c0.5,0.1,1.2,0.2,2.2,0.3c-0.2,0.3-0.2,0.5-0.1,0.7c0.1,0.2,0.2,0.4,0.5,0.4
		c0.2-0.6,0.2-1.4,0-2.2L-288.1-67z M-289.5-70.2l-0.3-0.4l-0.6,0.6l0.1,0.4L-289.5-70.2z M-280-126.8l-0.4,0.1l-0.1,1.2l0.6,0
		L-280-126.8z M-279.4-125.1l-0.4-0.1l-0.5,0.9l0.5,0.2L-279.4-125.1z M-278.3-122.6l-0.3-0.4l-0.7,0.6l0.1,0.4L-278.3-122.6z
		 M-270.9-90.4c-1.9,0.1-2.7,0.1-2.4,0c-1,0.3-1.5,1.2-1.6,2.6c-0.3-0.4-0.3-1-0.2-1.8c-0.6,0-1,0.1-1.4,0.3l-0.6,0.8
		c-0.1-0.2-0.1-0.5,0-1c0.1-0.5,0-0.9-0.1-1.2c-0.5-0.1-1.1,0-2,0.3c1.2-1.2,2-1.9,2.3-2c0.6-0.2,1.3-0.2,2.1,0.2
		c0.1,0.3,0.2,0.6,0.2,0.9C-273-90.9-271.8-90.6-270.9-90.4z M-277.8-81.2l-0.6-0.4l-0.2,0.5l0.6,0.3L-277.8-81.2z M-276.3-132.3
		l-2.1-0.1l0.1,0.4l1.9,0.1L-276.3-132.3z M-275.9-137.3l-1-0.6c-0.5,0.6-0.9,1.5-1.3,2.8C-277.2-136.4-276.4-137.2-275.9-137.3z
		 M-275.9-79.4c-0.5,0.2-1.1,0.1-1.7-0.2c0.4,1.1,0.6,1.9,0.5,2.6C-276.5-77.8-276.1-78.6-275.9-79.4z M-275-76.3l-0.2-0.5l-1.4,0.5
		l0.2,0.5L-275-76.3z M-275.1-135c-0.2-0.6-0.7-1-1.4-1.4l0.7,4.6l1.2-0.4c-0.1-0.3-0.2-0.7-0.3-1.4
		C-274.9-134.2-275-134.7-275.1-135z M-275.6-74.8l-0.3-0.9l-0.6,0.2l0.3,0.9L-275.6-74.8z M-271.8-124.5l-0.7-2
		c-0.3-0.4-0.9-0.8-1.8-1.2l-1.4,0.5c0.3,0.8,0.7,1.9,1.4,3.2c0.3-0.1,0.7-0.2,1.2-0.2C-272.5-124.3-272-124.4-271.8-124.5z
		 M-274.4-74.2l-0.3-0.9l-0.6,0.2l0.3,0.9L-274.4-74.2z M-273.3-128.4l-0.3-0.4l-0.6,0.6l0.1,0.4L-273.3-128.4z M-273.3-96.6
		l-0.7,0.7l-0.2-0.5l0.6-0.6L-273.3-96.6z M-273-95.7l-0.7,0.7l-0.2-0.5l0.6-0.6L-273-95.7z M-272.2-123.1c-0.1,0-0.4-0.1-0.8-0.4
		c-0.4-0.2-0.6-0.3-0.7-0.3c0.4,1.1,0.6,2.1,0.7,3.2C-272.9-121.3-272.6-122.1-272.2-123.1z M-271.1-85.8l-1.8,0.6l-0.2-0.5l1.8-0.6
		L-271.1-85.8z M-267.7-139.7c-0.2-0.5-0.3-0.7-0.5-0.5c-0.1-0.2-0.2-0.3-0.5-0.3c-0.3,0-0.5-0.1-0.6-0.2c-0.5-1.1-1.1-1.7-1.6-1.9
		c0.1,0.2,0,0.4-0.1,0.7c-0.2-0.2-0.5-0.2-0.8-0.1l0.9,2.6c0.2,0.5,0.6,1.1,1.4,1.9c-0.1,0.2-0.1,0.5,0.1,0.8
		c0.1,0.2,0.3,0.4,0.4,0.6l1.7-1.6c-0.2-0.3-0.3-0.7-0.3-1.1C-267.7-139.3-267.7-139.6-267.7-139.7z M-268.8-75.3
		c0.1-0.2,0.1-0.4,0.1-0.6c-0.1-0.3-0.4-0.5-1-0.8c0,0.1,0,0.3,0,0.7c0,0.3,0,0.5,0,0.7C-269.5-75.4-269.2-75.4-268.8-75.3z
		 M-268.1-131.5l-1.3,0l0.1,0.4l1.2,0.1L-268.1-131.5z M-267.5-129.3c-0.5,0.8-0.6,1.5-0.5,2c-0.1-0.2,0.2-0.5,0.7-0.9
		C-267.2-128.3-267.3-128.6-267.5-129.3z M-262.4-121.4c-0.3-0.3-0.7-0.9-1.1-1.8c-0.4-0.9-0.7-1.5-0.9-1.7
		c-0.5-0.2-1.2-0.4-2.1-0.4l-0.4-1.2c0.7-0.3,1-0.7,1.1-1.1c0.2-0.9,0.4-1.6,0.7-2c-0.5,0.2-0.9-0.1-1.1-0.8
		c-0.1,0.2-0.2,0.8-0.3,1.8c-0.1,1-0.3,1.6-0.7,1.9c0.1,0.4,0.2,1,0.5,1.9l1,3.1c0.3-0.1,0.5-0.3,0.7-0.5l0.6,0.3
		c-0.4,0.8-0.5,1.2-0.5,1.4c0.7-0.2,1.4-0.2,1.8,0.1L-262.4-121.4z M-264.5-123.7l-1.2,0.4c0.1-0.5,0.1-0.8,0-1
		C-264.9-124-264.6-123.8-264.5-123.7z M-264.7-120.4l-0.6,0l-0.1,0.9l0.5,0.1L-264.7-120.4z M-263.4-117l-0.2-0.5l-0.9,0.3l0.2,0.5
		L-263.4-117z M-261.3-117.9c-0.8-1.1-1.3-1.8-1.4-2.2c-0.6,0.2-0.9,0.5-0.7,1c0.1,0.2,0.2,0.5,0.5,0.8c0.3,0.3,0.4,0.5,0.4,0.5
		c0.1-0.2,0.2-0.2,0.3-0.3C-262-118.1-261.7-118.1-261.3-117.9z M-261.3-111.7c-0.2-0.7-0.7-1.6-1.3-2.6c0,1.6,0.1,2.6,0.2,2.9
		L-261.3-111.7z M-253.3-91.4c-0.2,0.1-0.4,0.3-0.6,0.6l-0.1-0.4c0.1-0.3,0.1-0.6,0-0.9c-0.1-0.2-0.2-0.4-0.5-0.6
		c-0.2-0.5-0.5-1.1-0.7-1.8c-0.4-1.2-0.7-2.7-0.9-4.3c-0.2,0.2-0.3,0.4-0.5,0.5c-0.1,0-0.2,0-0.3,0c0.4-0.5,0.4-1.1-0.1-2
		c0.1-0.5,0.1-0.8,0-1.1c-0.1-0.2-0.2-0.3-0.3-0.5l0.4-0.6c-0.2-0.6-0.4-1-0.5-1.2c-0.4-0.2-0.8-0.5-1.4-0.9
		c-0.1-0.3-0.1-0.8-0.1-1.4c0-0.6,0.1-0.9,0-1c-0.9-0.6-2-1.4-3.3-2.5c0,0.2,0.3,1.3,1,3.4c0.3-0.4,0.7-0.6,1-0.7
		c0.2-0.1,0.5-0.1,0.7-0.1c-0.8,0.8-1.2,1.5-1.2,2.3c0.7-0.2,1.1-0.1,1.2,0.5c-0.1,0.1-0.4,0.3-0.8,0.7c0.2,0.1,0.2,0.4,0.1,0.7
		c-0.1,0.3-0.1,0.5-0.1,0.6c0.1,0.2,0.2,0.4,0.4,0.7c0.2,0.3,0.4,0.5,0.4,0.7c0.1,0.4,0.1,1,0,1.9c0.1,0,0.3,0.3,0.6,0.8
		c-0.1,0.9,0.1,2,0.5,3.2c1.5,4.6,2.7,7.7,3.6,9.4c-0.3-0.9-0.6-2-0.9-3.5c0.7-0.3,1.3,0.5,1.9,2.4c0.2-0.1,0.4-0.3,0.7-0.6
		l-0.5-1.4c-0.3,0.1-0.5,0.1-0.6,0c0-0.1,0-0.1,0.1-0.2c0.2-0.1,0.4,0,0.7,0.1c-0.1-0.3-0.1-0.8-0.1-1.5
		C-253.2-90.8-253.2-91.2-253.3-91.4z M-260.8-115.3c-0.1-0.2-0.3-0.4-0.6-0.7c-0.3,0.1-0.4,0.6-0.1,1.4
		C-261.2-114.8-260.9-115-260.8-115.3z M-258.9-111.6c-0.3,0-0.5,0-0.7,0c-0.4,0.1-0.7,0.5-1,1c0.7-0.2,1.2-0.2,1.6,0
		C-259-110.9-259-111.2-258.9-111.6z M-258.5-109.6l-1.7,0.1l0.4,1.1c0.1,0,0.3-0.2,0.7-0.6C-258.8-109.3-258.6-109.5-258.5-109.6z
		 M-257.2-97.1c-0.5-0.1-0.8-0.1-1-0.1c0-0.2,0-0.5,0.1-1C-257.7-98-257.4-97.7-257.2-97.1z M-256.7-105.6l-0.7-0.8l-0.4,0.3
		l0.6,0.7L-256.7-105.6z M-256.4-94.9l-0.8,0.7l-0.2-0.5l0.7-0.6L-256.4-94.9z M-255-100.3l-0.4-1.1l-0.5,0.2l0.4,1.1L-255-100.3z
		 M-254.7-90l-0.6,0.2l-0.3-0.9l0.6-0.2L-254.7-90z M-251.9-90.7l-0.6-0.4l-0.2,0.5l0.6,0.3L-251.9-90.7z M-251.7-94.1
		c-0.2-0.6-0.5-1-0.9-1c0.2,0.7,0.3,1.2,0.2,1.5C-252.1-93.7-251.9-93.8-251.7-94.1z M-252-84.9l-0.5,0.2l0,1.1l0.5,0L-252-84.9z
		 M-251.2-97.7c-0.1-0.2-0.3-0.4-0.7-0.7c0.1,0.5,0,0.8-0.5,1.1L-251.2-97.7z M-251.1-92.7l-0.5,0l-0.2,0.9l0.6,0.1L-251.1-92.7z
		 M-250.4-93.5l-0.4-1.1l-0.5,0.2l0.4,1.1L-250.4-93.5z"/>
	<path class="st1" d="M-222.4-81.8c-1.1,0.4-2.6,1-4.7,2c-2,1-3.6,1.7-4.7,2c-0.9,0.3-2,0.1-3.3-0.6c-3.1-9.4-5.6-16.4-7.5-21.1
		c-0.8-1.9-2.1-5.5-4-10.5c-1.4-3.9-4-11.6-8-22.9c-0.4-1.2-1.2-3-2.3-5.5c-1-2.4-1.8-4.2-2.2-5.6c-0.3-0.9,0.2-2.8,1.4-5.8
		c1.5-0.7,2.7-1.2,3.6-1.6c0.9-0.4,1.5-0.7,1.8-0.8c0.3-0.2,0.4-0.2,0.1-0.1c3.6-1.2,5.9-0.1,7,3.3c0.2,0.6,0.5,2.2,0.9,4.7
		c0.2,1.1,1.1,4,2.9,8.8c1.2,3.1,4.1,11.9,8.8,26.3C-231-104.6-227.6-95.4-222.4-81.8z M-245.5-138.9l-0.8,0l-0.2,1.4l0.8,0
		L-245.5-138.9z M-229.8-92.7l-1.8-5.4l-0.8,0.3l1.8,5.4L-229.8-92.7z"/>
	<path class="st1" d="M-193.9-143c-1.3,0.3-2.7,0.7-4.3,1.2c-1.6,0.5-3.3,1.1-5.1,1.8c-0.3,0.2-0.9,0.4-2,0.8
		c-0.5-0.4-1.2-0.9-2-1.5c-0.3-1.4-0.6-2.6-0.9-3.6c-1.2-3.6-3.1-6-5.8-7.2c-1-0.5-2.3-0.5-3.7,0c-5.3,1.7-6.6,6.5-4.1,14.3
		c0.5,1.1,1.3,2.2,2.4,3.4c1.7,1.7,3.6,2.5,5.6,2.5c0.2,0,1-0.2,2.5-0.7c0.3-0.1,1.5,0.1,3.6,0.5c2.1,0.4,3.4,0.7,3.9,0.7
		c0.3,0.3,0.8,0.8,1.4,1.2c0.8-0.6,2.2-0.8,4.2-0.5c2,0.2,3.4,0.7,4.4,1.3c1,0.6,2.3,1.5,3.9,2.8l1.3,1.5l0.9,2.7
		c0.1,0.3,0.3,0.7,0.5,1.3c0.3,0.6,0.4,1.1,0.5,1.3c4.2,12.7,3.3,21.4-2.6,26c-1.6,1.3-5.2,2.8-10.6,4.6c-3.9,1.3-6.7,1.8-8.4,1.6
		c-3.7-0.4-7.6-2.4-11.5-6c-1.2-1.5-3.3-5.2-6.5-11.2c-0.1-0.3-0.2-0.9-0.3-1.7c-0.1-0.8-0.2-1.3-0.3-1.7c0.3-0.6,0.8-1.3,1.5-2.2
		c1.7-1.3,3.9-2.4,6.6-3.3c-0.2,0.1,0.6,0,2.3-0.3c1.2,0.5,2,1,2.3,1.7c0.3,1.5,1.2,3.5,2.7,6c1.5,2.5,2.8,4.3,4,5.6
		c1.9,0.2,3.6,0.1,5-0.4c2.3-0.8,3.8-2.4,4.4-4.9c0.5-2.2,0.4-4.5-0.4-6.9c-0.8-2.5-2-4-3.4-4.6c-0.7-0.3-2.4-0.7-5.1-1.2
		c-2.6-0.5-4.2-0.6-4.7-0.5c-1.9,0.6-4.1,0.6-6.4,0c-3.2-0.8-5.1-1.3-5.9-1.3c-2-1.2-4.3-3.2-6.9-6c-1.7-1.8-3.8-6.1-6.3-12.8
		c-1-5.1-0.4-9.9,1.7-14.5c2.2-4.9,5.7-8.2,10.5-9.8c0.8-0.3,3.1-0.4,6.9-0.5c0.3,0.3,0.8,0.7,1.5,1.2c0.2-0.1,0.5-0.2,0.7-0.3
		c1.1-0.4,2.3-0.5,3.7-0.6c1.7,0,2.9,0.2,3.6,0.7c1.4,0.9,2.7,1.9,4,2.8c0.9,0.8,2.4,2.5,4.4,5.1c2.4,3.1,3.8,5.1,4.1,6.3
		L-193.9-143z M-231.9-136.5l-0.9,0.3l0.4,2.8l0.9-0.3L-231.9-136.5z M-216.6-126.8c-0.2-0.1-1.9-1.5-5.2-4.2
		c-0.3,0.3-0.5,0.5-0.7,0.6c-0.3,0.1-0.5,0.1-0.8-0.1l-0.2,1.3c0.2,0.5,0.4,0.7,0.6,0.7c0.2-0.1,0.3-0.2,0.4-0.3
		c0.2,1.3,0.4,2.5,0.7,3.4c0.4,1.3,1.1,2.1,2.1,2.4c0.6,0.2,1.1,0.4,1.2,0.6C-218.4-124-217.8-125.5-216.6-126.8z M-213.8-106
		c-0.3-0.8-0.7-1.8-1.3-3l-1.1,1.2c-0.5,0.1-1.2,0.5-2,1c-0.8,0.6-1.4,0.9-1.8,1.1c0.2-0.1,0.2-0.1,0.2-0.2
		c-0.1-0.2-0.5-0.3-1.3-0.3c-0.8,0-1.3,0-1.6,0.1c0,1.4,0.1,2.4,0.3,2.9c0-0.3,0.1-0.8,0.3-1.4c0.3,0.4,0.5,0.8,0.7,1.2
		c0.1,0.3,0.2,0.7,0.2,1.1c0.3,0.1,0.7,0.4,1.1,0.8c0.4,0.5,0.6,0.7,0.8,0.8c0.2-1.1,0.1-1.9-0.2-2.5c0.4-0.6,0.7-1.5,1.1-2.7
		l1.5-1.3c0.1,0.6,0.2,1.1,0.3,1.4c0.2,0.6,0.5,0.9,0.8,1.1c0.6,0.2,0.9,0.4,1,0.5C-215.2-105.2-214.8-105.8-213.8-106z
		 M-218.6-104.1l-1.7,0.6l-0.3-0.9l1.7-0.6L-218.6-104.1z M-217.6-98.5L-218-99l-0.9,0.9l0.2,0.7L-217.6-98.5z M-213.9-158.4
		c-0.3-0.9-0.8-1.5-1.7-1.9l-1.7,0.6l0.9,2.6c0.3-0.1,0.7-0.3,1.2-0.6C-214.6-158.1-214.2-158.3-213.9-158.4z M-210.8-152.2
		l-1.6-4.9l-3.1,1c1.2,1.7,1.9,2.5,2,2.6C-212.6-152.4-211.7-152-210.8-152.2z M-213.6-101.9l-0.4-1.2l-0.6,0.2l0.4,1.2
		L-213.6-101.9z M-201.4-97l-2.7,0.9c0.4,0.2,0.6,0.3,0.6,0.5c0.1,0.2-0.1,0.3-0.5,0.5l-1-0.5c0.4-0.8,0.5-1.5,0.2-2.2
		c-0.8,0.3-1.3,0.6-1.6,1.1c0.8,1.2,1.9,2.9,3.1,4.9c0.4-1,0.4-2,0-3.1c0.3-0.1,0.7-0.1,1.2,0.1c0.5,0.2,0.8,0.2,0.9,0.2
		C-201.5-95.8-201.6-96.6-201.4-97z M-197.7-121.4c-0.5,0.5-1.2,0.2-2.1-0.8c-0.1-0.4-0.3-0.9-0.8-1.7c-0.2-0.1-0.3-0.2-0.4-0.1
		c-0.3,0.1-0.5,0.6-0.6,1.5c-0.7,0.7-1.3,1.1-1.7,1.2c-0.1,0-0.3,0-0.5-0.1c-0.2-0.1-0.4-0.1-0.5,0c1,0.1,2.2,0.5,3.5,1.3
		c1.9,1.1,3.1,1.8,3.8,2.1l-1.8-1.8C-198.6-120.1-198.2-120.7-197.7-121.4z M-200.2-151.5l-0.5-0.6l-0.9,0.9l0.2,0.7L-200.2-151.5z
		 M-195.1-105.9c-1,2-1.3,3.5-0.9,4.6c0.2,0.7,1,0.9,2.2,0.5c-0.1-0.3-0.2-0.9-0.2-1.6c0-0.7-0.1-1.3-0.2-1.5
		c-0.1-0.3-0.3-0.6-0.6-0.9C-194.8-105.1-194.9-105.4-195.1-105.9z M-194.1-109.1l-0.3-0.8l-1.2,0.4l0.3,0.8L-194.1-109.1z
		 M-193.4-98.2l-0.7,0.2l-0.1,2.2l0.8,0.1L-193.4-98.2z"/>
	<path class="st1" d="M-150.1-157.3c-1.3,0.3-2.7,0.7-4.3,1.2c-1.6,0.5-3.3,1.1-5.1,1.8c-0.3,0.2-0.9,0.4-2,0.8
		c-0.5-0.4-1.2-0.9-2-1.5c-0.3-1.4-0.6-2.6-0.9-3.6c-1.2-3.6-3.1-6-5.8-7.2c-1-0.5-2.3-0.5-3.7,0c-5.3,1.7-6.6,6.5-4.1,14.3
		c0.5,1.1,1.3,2.2,2.4,3.4c1.7,1.7,3.6,2.5,5.6,2.5c0.2,0,1-0.2,2.5-0.7c0.3-0.1,1.5,0.1,3.6,0.5c2.1,0.4,3.4,0.7,3.9,0.7
		c0.3,0.3,0.8,0.8,1.4,1.2c0.8-0.6,2.2-0.8,4.2-0.5c2,0.2,3.4,0.7,4.4,1.3c1,0.6,2.3,1.5,3.9,2.8l1.3,1.5l0.9,2.7
		c0.1,0.3,0.3,0.7,0.5,1.3c0.3,0.6,0.4,1.1,0.5,1.3c4.2,12.7,3.3,21.4-2.6,26c-1.6,1.3-5.2,2.8-10.6,4.6c-3.9,1.3-6.7,1.8-8.4,1.6
		c-3.7-0.4-7.6-2.4-11.5-6c-1.2-1.5-3.3-5.2-6.5-11.2c-0.1-0.3-0.2-0.9-0.3-1.7c-0.1-0.8-0.2-1.3-0.3-1.7c0.3-0.6,0.8-1.3,1.5-2.2
		c1.7-1.3,3.9-2.4,6.6-3.3c-0.2,0.1,0.6,0,2.3-0.3c1.2,0.5,2,1,2.3,1.7c0.3,1.5,1.2,3.5,2.7,6c1.5,2.5,2.8,4.3,4,5.6
		c1.9,0.2,3.6,0.1,5-0.4c2.3-0.8,3.8-2.4,4.4-4.9c0.5-2.2,0.4-4.5-0.4-6.9c-0.8-2.5-2-4-3.4-4.6c-0.7-0.3-2.4-0.7-5.1-1.2
		c-2.6-0.5-4.2-0.6-4.7-0.5c-1.9,0.6-4.1,0.6-6.4,0c-3.2-0.8-5.1-1.3-5.9-1.3c-2-1.2-4.3-3.2-6.9-6c-1.7-1.8-3.8-6.1-6.3-12.8
		c-1-5.1-0.4-9.9,1.7-14.5c2.2-4.9,5.7-8.2,10.5-9.8c0.8-0.3,3.1-0.4,6.9-0.5c0.3,0.3,0.8,0.7,1.5,1.2c0.2-0.1,0.5-0.2,0.7-0.3
		c1.1-0.4,2.3-0.5,3.7-0.6c1.7,0,2.9,0.2,3.6,0.7c1.4,0.9,2.7,1.9,4,2.8c0.9,0.8,2.4,2.5,4.4,5.1c2.4,3.1,3.8,5.1,4.1,6.3
		L-150.1-157.3z M-188-150.9l-0.9,0.3l0.4,2.8l0.9-0.3L-188-150.9z M-172.8-141.2c-0.2-0.1-1.9-1.5-5.2-4.2
		c-0.3,0.3-0.5,0.5-0.7,0.6c-0.3,0.1-0.5,0.1-0.8-0.1l-0.2,1.3c0.2,0.5,0.4,0.7,0.6,0.7c0.2-0.1,0.3-0.2,0.4-0.3
		c0.2,1.3,0.4,2.5,0.8,3.4c0.4,1.3,1.1,2.1,2.1,2.4c0.6,0.2,1.1,0.4,1.2,0.6C-174.6-138.4-174-139.9-172.8-141.2z M-170-120.4
		c-0.3-0.8-0.7-1.8-1.3-3l-1.1,1.2c-0.5,0.1-1.2,0.5-2,1c-0.8,0.6-1.4,0.9-1.8,1.1c0.2-0.1,0.2-0.1,0.2-0.2
		c-0.1-0.2-0.5-0.3-1.3-0.3c-0.8-0.1-1.3,0-1.6,0.1c0,1.4,0.1,2.4,0.3,2.9c0-0.3,0.1-0.8,0.3-1.4c0.3,0.4,0.5,0.8,0.7,1.2
		c0.1,0.3,0.2,0.7,0.2,1.1c0.3,0.1,0.7,0.4,1.1,0.8c0.4,0.5,0.6,0.7,0.8,0.8c0.2-1.1,0.1-1.9-0.2-2.5c0.4-0.6,0.7-1.5,1.1-2.7
		l1.5-1.3c0.1,0.6,0.2,1.1,0.3,1.4c0.2,0.6,0.5,0.9,0.8,1.1c0.6,0.2,0.9,0.4,1,0.5C-171.4-119.6-171-120.2-170-120.4z M-174.8-118.5
		l-1.7,0.6l-0.3-0.9l1.7-0.6L-174.8-118.5z M-173.8-112.9l-0.5-0.5l-0.9,0.9l0.2,0.7L-173.8-112.9z M-170-172.8
		c-0.3-0.9-0.8-1.5-1.7-1.9l-1.7,0.6l0.9,2.6c0.3-0.1,0.7-0.3,1.2-0.6C-170.7-172.5-170.3-172.7-170-172.8z M-167-166.6l-1.6-4.9
		l-3.1,1c1.2,1.7,1.9,2.5,2,2.6C-168.8-166.8-167.9-166.4-167-166.6z M-169.8-116.3l-0.4-1.2l-0.6,0.2l0.4,1.2L-169.8-116.3z
		 M-157.5-111.4l-2.7,0.9c0.4,0.2,0.6,0.3,0.6,0.5c0.1,0.2-0.1,0.3-0.5,0.5l-1-0.5c0.4-0.8,0.5-1.5,0.2-2.2
		c-0.8,0.3-1.3,0.6-1.6,1.1c0.8,1.2,1.9,2.9,3.1,4.9c0.4-1,0.4-2,0-3.1c0.3-0.1,0.7-0.1,1.2,0.1c0.5,0.2,0.8,0.2,0.9,0.2
		C-157.7-110.2-157.8-111-157.5-111.4z M-153.8-135.8c-0.5,0.5-1.2,0.2-2.1-0.8c-0.1-0.4-0.3-0.9-0.8-1.7c-0.2-0.1-0.3-0.2-0.4-0.1
		c-0.3,0.1-0.5,0.6-0.6,1.5c-0.7,0.7-1.3,1.1-1.7,1.2c-0.1,0-0.3,0-0.5-0.1c-0.2-0.1-0.4-0.1-0.5,0c1,0.1,2.2,0.5,3.5,1.3
		c1.9,1.1,3.1,1.8,3.8,2.1l-1.8-1.8C-154.8-134.5-154.4-135.1-153.8-135.8z M-156.4-165.8l-0.5-0.6l-0.9,0.9l0.2,0.7L-156.4-165.8z
		 M-151.3-120.3c-1,2-1.3,3.5-0.9,4.6c0.2,0.7,1,0.9,2.2,0.5c-0.1-0.3-0.2-0.9-0.2-1.6c0-0.7-0.1-1.3-0.2-1.5
		c-0.1-0.3-0.3-0.6-0.6-0.9C-151-119.5-151.1-119.8-151.3-120.3z M-150.3-123.5l-0.3-0.8l-1.2,0.4l0.3,0.8L-150.3-123.5z
		 M-149.5-112.6l-0.7,0.2l-0.1,2.2l0.8,0.1L-149.5-112.6z"/>
	<path class="st1" d="M-116.6-116.6c-1.1,0.4-2.6,1-4.7,2c-2,1-3.6,1.7-4.7,2c-0.9,0.3-2,0.1-3.3-0.6c-3.1-9.4-5.6-16.4-7.5-21.1
		c-0.8-1.9-2.1-5.5-4-10.5c-1.4-3.9-4-11.6-8-22.9c-0.4-1.2-1.2-3-2.3-5.5c-1-2.4-1.8-4.2-2.2-5.6c-0.3-0.9,0.2-2.8,1.4-5.8
		c1.5-0.7,2.7-1.2,3.6-1.6c0.9-0.4,1.5-0.7,1.8-0.8c0.3-0.2,0.4-0.2,0.1-0.1c3.6-1.2,5.9-0.1,7,3.3c0.2,0.6,0.5,2.2,0.9,4.7
		c0.2,1.1,1.1,4,2.9,8.8c1.2,3.1,4.1,11.9,8.8,26.3C-125.2-139.4-121.8-130.2-116.6-116.6z M-139.7-173.7l-0.8,0l-0.2,1.4l0.8,0
		L-139.7-173.7z M-124-127.4l-1.8-5.4l-0.8,0.3l1.8,5.4L-124-127.4z"/>
	<path class="st1" d="M-81.6-160.3l-0.3,0.8l0.9,2.7c0.1,0.3,0.3,0.7,0.5,1.3c0.3,0.6,0.4,1.1,0.5,1.3c4.2,12.7,3.3,21.4-2.6,26
		c-1.6,1.3-5.2,2.8-10.6,4.6c-3.9,1.3-6.7,1.8-8.4,1.6c-5.1-0.5-9.3-2.9-12.7-7.2c-3.1-3.9-6.8-12.3-11-25.1
		c-1.6-4.8-2.9-9.1-4.1-12.9c-1.4-4.9-2.1-9.4-2-13.3c0.2-7,2.9-11.9,8.1-14.6c2.5-1.3,6.1-2.7,10.8-4.2c2.3-0.8,5-0.6,8.1,0.6
		c6.6,2.6,11.8,8.9,15.4,18.9l4.3,11.5c0.1,0.5,0.3,1.5,0.4,3.1c0.1,1,0.2,1.8,0.4,2.4c0.2,0.7,0.6,1.2,1.2,1.7L-81.6-160.3z
		 M-116.4-149.9l-0.8,0l-0.2,1.4l0.8,0L-116.4-149.9z M-93.6-153.4c-4.3-13-7.8-22.5-10.6-28.6c-0.6-1.2-1.9-2.1-3.9-2.8
		c-2-0.7-3.7-0.8-5-0.3c-2.6,0.9-4,3.1-4.2,6.8c-0.1,2.6,0.3,5.5,1.3,8.7c0.5,1.6,1.4,3.8,2.5,6.4c1.3,3.3,2.2,5.4,2.6,6.4
		c2,5.3,3.3,9.3,3.9,12c0.8,3.3,2.8,6.6,6.2,9.9c1.9,0.2,3.6,0.1,5-0.4c3.3-1.1,4.8-3.8,4.5-8.2C-91.4-145.7-92.2-149-93.6-153.4z
		 M-112.5-190.5l-1.6-3c-0.5,0.9-1.2,1.5-2.2,1.9l1.2,3.6L-112.5-190.5z M-114.4-142.2l-0.6-1.7l-0.9,0.3l0.6,1.7L-114.4-142.2z
		 M-112.1-139.1l-0.3-0.9l-1.7,0.6l0.3,0.9L-112.1-139.1z M-111.1-133.5l-0.5-0.5l-0.9,0.9l0.2,0.7L-111.1-133.5z M-102.7-190.8
		l-0.8,0l-0.2,1.4l0.8,0L-102.7-190.8z M-99.5-185.1c-1.3,0.2-2-0.2-2.3-1.1c-0.5-1.2-0.8-2-1.1-2.2c-0.2-0.7-0.2-0.3,0.2,1.3
		c0.3,1.6,0.6,2.6,0.7,2.9L-99.5-185.1z M-100.5-182.4l-0.9-0.5l-0.3,0.7l0.9,0.5L-100.5-182.4z M-97.6-187.1l-0.6-1.7
		c-0.1,0-0.5-0.2-1.1-0.5c-0.6-0.3-1-0.4-1-0.4c0.2,0.7,0.2,1.3-0.1,1.8c0.2,0,0.7,0.1,1.5,0.4C-98.2-187.2-97.7-187.1-97.6-187.1z
		 M-94.9-132l-2.7,0.9c0.4,0.2,0.6,0.3,0.6,0.5c0.1,0.2-0.1,0.3-0.5,0.5l-1-0.5c0.4-0.8,0.5-1.5,0.2-2.2c-0.8,0.3-1.3,0.6-1.6,1.1
		c0.8,1.2,1.9,2.9,3.1,4.9c0.4-1,0.4-2,0-3.1c0.3-0.1,0.7-0.1,1.2,0.1c0.5,0.2,0.8,0.2,0.9,0.2C-95.1-130.8-95.1-131.6-94.9-132z
		 M-95.1-169.1l-0.6-1.7l-0.8,0.3l0.6,1.7L-95.1-169.1z M-88.7-140.8c-1,2-1.3,3.5-0.9,4.6c0.2,0.7,1,0.9,2.2,0.5
		c-0.1-0.3-0.2-0.9-0.2-1.6c0-0.7-0.1-1.3-0.2-1.5c-0.1-0.3-0.3-0.6-0.6-0.9C-88.4-140-88.5-140.4-88.7-140.8z M-87.7-144.1
		l-0.3-0.8l-1.2,0.4l0.3,0.8L-87.7-144.1z M-86.9-133.1l-0.7,0.2l-0.1,2.2l0.8,0.1L-86.9-133.1z"/>
	<path class="st1" d="M-24.3-150.4c0.8,2.3-0.3,4-3.1,4.9c-0.6,0.2-1.5,0.5-2.8,0.8c-1.2,0.3-2.1,0.6-2.8,0.8
		c-1.7,0.6-2.5,0.8-2.3,0.8c-5.7-5.4-11.6-11.4-17.6-18l-15.3-16.7c-0.2,0.1-0.5,0.4-0.7,1.1c0.4,0.5,0.7,1.6,1.1,3.1l0.7,2.6
		c0.2,0.8,1.6,4.4,4.1,10.7c2.8,7.1,5.2,12.7,7.1,16.6c1.1,1.6,1.8,2.6,1.8,3l1.1,3.2c-1.1,0.2-2.5,0.7-4.2,1.4
		c-1.2,0.5-2.2,1-3.2,1.3c-2.5,1.1-4.2,1.2-5.1,0.5c-2.1-4.7-5.9-13.7-11.3-27c-0.3-0.6-4-11.2-11.1-31.8c-0.3-0.9-0.8-2.1-1.6-3.8
		c-0.8-1.7-1.3-3-1.6-3.9c-0.3-1-0.1-2.6,0.6-4.8c1.2-0.7,3.2-1.4,5.9-2.3l0.3-0.7c0.1-0.2,0.4-0.4,0.9-0.6c1.1-0.4,2.4-0.3,4,0
		c1.6,0.4,2.7,0.9,3.3,1.7c0.6,0.8,1.4,2,2.2,3.7c0.8,1.7,1.5,2.9,2.2,3.7c2.2,2.6,4.9,5.4,8.1,8.4l9,8.4c1-0.3,1.3-0.9,1.1-1.7
		l-9.4-28.6c-0.2-0.6,0-1.4,0.7-2.4c0.6-1,1.2-1.6,1.8-1.8c0.2-0.1,1.8,0,4.8,0.3c1.5-0.3,2.6-0.4,3.3-0.4c1.1,0,2.2,0.2,3.1,0.7
		c0,2.2,0.1,3.8,0.5,4.7c1,2.6,3.2,8.5,6.7,17.7c3.8,10.1,8,21.3,12.7,33.7c0.4,1.1,1.3,2.8,2.5,5.2
		C-25.6-153.5-24.7-151.7-24.3-150.4z M-85.3-203.2c-0.3,0.1-0.7,0.4-1.2,1c0.5,0.4,1,1,1.7,1.7C-84.9-201.5-85-202.4-85.3-203.2z
		 M-83.5-196.9l-0.7-2.1l-0.8,0.3l0.7,2.1L-83.5-196.9z M-78-182.4l-0.3-0.9l-1.2,0.4l0.3,0.9L-78-182.4z M-74.7-174.8l-0.7-0.1
		l-0.2,1.4l0.7,0.1L-74.7-174.8z M-71-196.1l-0.9-0.5l-0.3,0.7l0.9,0.5L-71-196.1z M-70.2-165.1l-0.3-0.8l-1.7,0.6l0.3,0.8
		L-70.2-165.1z M-55.7-211.9l-0.9-0.5l-0.3,0.6l0.8,0.5L-55.7-211.9z M-50.5-212.7c-0.2,0.4-0.5,1.8-1,4.3c0.7-0.2,1.2,0,1.4,0.7
		C-50.3-209.1-50.4-210.7-50.5-212.7z M-36-151.7c-0.8-0.1-1.9-0.5-3.4-1.1l0.6,1.7c1.8,0.4,2.7,0.6,2.7,0.7
		C-36.2-150.6-36.2-151.1-36-151.7z M-35.9-167.6l-1.2-3.7c-0.6,0.8-0.8,1.4-0.7,1.7c0.1,0.4,0.5,0.8,1.1,1.3L-35.9-167.6z
		 M-30.5-150.2l-1.8-3.4c-0.3,0.6-0.6,1.5-0.8,2.8c-1-0.6-1.7-1.5-2.1-2.8c-0.2,0.1,0.2,1.8,1.3,5
		C-32.7-149.1-31.6-149.7-30.5-150.2z"/>
</g>
<g class="st0">
	<path class="st1" d="M-223,23c-0.4,1.4-2.9,2.8-7.4,4.3c-4.4,1.4-8.1,0.4-11.2-3c-1.8-2.6-4.5-6.4-8.2-11.5c-5.6-7-9-10.3-10.3-9.9
		c-0.7,0.2-1.5,0.8-2.4,1.8c-0.4,1.5,0.4,5.2,2.5,10.9c0.8,2.2,2.1,5.9,3.9,11.1c0.3,0.9,0.9,2.3,1.7,4.2c0.8,1.9,1.4,3.3,1.8,4.3
		c-2.8,1.3-6.8,2.9-12.1,4.6c-1.6-1.6-3-3.9-4.1-6.7c-4.5-11.5-9.2-24.3-14.2-38.5l-8.4-24.1c-0.8-2.1-1.2-3.7-1.2-4.7
		c-0.2-1.9,0.7-3.2,2.6-3.8c0.4-0.1,0.9-0.2,1.7-0.3c0.8,0,1.3-0.1,1.7-0.3c0.7-0.2,1.7-0.8,3-1.8c1.3-1,2.3-1.6,3-1.8
		c0.7-0.2,2-0.4,3.7-0.4c1.8,0,3-0.1,3.7-0.4c0.2-0.1,0.5-0.4,1-0.9c0.5-0.5,0.9-0.8,1.2-0.9c6.9-2.3,12.9-1.4,18,2.6
		c4.4,3.4,7.7,8.8,10.1,16c1.6,4.8,2.1,8.9,1.5,12.3c-0.3,1.9-1.2,4-2.7,6.4c-1.1,1.8-1.5,3.2-1.1,4.2c0.1,0.4,0.9,1.3,2.4,2.6
		c0.9,0.8,1.8,1.7,2.9,2.7c2.1,3,5,7.1,8.7,12C-229.4,16-226.7,19-223,23z M-281.6-19.1l-0.3-0.8l-1.8,0.6l0.3,0.8L-281.6-19.1z
		 M-282-34.9l-0.8,0l-0.2,1.5l0.7,0.1L-282-34.9z M-280.7-30.5l-0.7,0.2l0.7,5.6l0.7-0.2L-280.7-30.5z M-278.7-15.5
		c-0.4-0.1-0.8,0-1.1,0.1c-0.5,0.2-0.9,0.5-1.2,1.1l0.6,1.7c0.3-0.2,0.6-0.8,1-1.6C-279.1-15-278.9-15.4-278.7-15.5z M-275.7-2.9
		l-0.3-0.8l-1.4,0.5l0.3,0.8L-275.7-2.9z M-257.7-23.8c-1.2-3.8-2.6-6-4.1-6.7c-0.2-0.1-0.8-0.3-1.7-0.6c-4.5,0.2-7.1,0.4-7.6,0.6
		c-0.2,0.1-1.3,0.8-3.3,1.9c-0.1,0.4-0.4,1-0.7,1.8c1.3,4,3.1,8.1,5.4,12.2c0.3,0.5,0.5,1.2,0.7,2.2c0.2,1,0.4,1.8,0.5,2.3
		c0.4,1.3,1.3,2.1,2.5,2.2c7.6-1.8,10.8-6.1,9.5-12.7C-256.5-20.1-256.8-21.2-257.7-23.8z M-272.1-39.9l-0.8,0.3l0.1,2.5l0.9-0.3
		L-272.1-39.9z M-268.7-39l-2.1,0.1l0.2,0.7l1.8,0L-268.7-39z M-263.1-5.8l-0.8,0l-0.2,1.5l0.8,0L-263.1-5.8z M-262.8-3.9
		c-0.8,0.8-1,1.7-0.7,2.6c0.1,0.4,0.4,0.8,0.8,1.4c0.4,0.6,0.7,0.9,0.7,1.1C-261.7,0.4-262-1.3-262.8-3.9z M-255.9-30.8l-0.8,0
		l-0.2,1.5l0.8,0L-255.9-30.8z M-254.6-26.6l-0.6-1.8l-0.8,0.3l0.6,1.8L-254.6-26.6z M-246.3,7.9l-0.3-0.8l-1.8,0.6l0.3,0.8
		L-246.3,7.9z M-232.7,17.5l-0.6-1.8c-0.9-0.1-2-0.5-3.3-1.2c0.3,0.8,0.2,1.5-0.1,2.1c0.4-0.1,1.2,0,2.2,0.4
		C-233.5,17.3-232.9,17.5-232.7,17.5z"/>
	<path class="st1" d="M-180,6c0.8,2.3,0.5,3.7-0.9,4.1c-4.3,1.4-7.7,2.6-10,3.5c-4.7,1.8-8,3-10,3.5c-5.7,2.3-9,3.6-9.8,3.8
		l-5.6,1.8c-2.2-7-6.9-20.4-14.2-40.2c-0.3-0.8-3-8-8.2-21.6l-5.2-13.6c-0.1-0.4-0.1-0.9,0-1.3l0.1-0.5c0.4-1.7,2.5-3.2,6.4-4.4
		c1-0.3,2.5-0.6,4.5-0.9c2-0.3,3.5-0.6,4.5-0.9c1.3-0.4,3.1-1.5,5.3-3.1c2.3-1.7,4-2.7,5.3-3.1c0.4-0.1,1.8-0.1,4.3,0
		c2.4,0.2,4.1,0.1,4.9-0.1c0.3,0.1,0.7,0.3,1.2,0.6l2.1,4.9c0.8,2,1.5,3.6,1.9,4.9c0.1,0.3,0.1,1-0.1,2c-5,1.5-8.5,2.7-10.5,3.6
		c-1,0.9-1.7,1.5-2,1.6c-0.7,0.2-1.7,0.4-3,0.4c-1.3,0.1-2.3,0.2-3,0.4c-2,0.7-3.4,1.4-4,2.2c0.6,1.3,1.3,3.1,2,5.2l1.2,3.6
		c1,3.2,1.6,4.9,1.8,5.1c1,2,2.3,2.7,4,2.2c2.7-0.9,4.1-1.4,4.3-1.6l3.9-2.8c0.9-0.3,2.3-0.4,4.1-0.2c2.1,0.2,3.3,0.7,3.5,1.4
		c0.3,1,0.8,2.6,1.3,4.8c0.5,2.2,0.9,3.8,1.3,4.8c0.3,0.8,0.1,1.6-0.4,2.5c-1,0.4-3.1,1.1-6.1,2.1c-0.9,0.3-2.3,0.7-4.1,1.1
		c-1.8,0.4-3.1,0.8-4.1,1.1c-0.9,0.3-1.6,0.8-2,1.5c1.6,4.8,3.7,10.4,6.2,16.7c0.7,1.9,1,3.4,0.8,4.5l14.6-6
		c4.7-1.9,7.9-2.6,9.5-1.8C-183-1.9-181.6,0.9-180,6z M-225.3-53.4c-0.3,0.2-0.6,0.4-0.9,0.5c-0.6,0.2-1,0-1.2-0.7
		c0-0.1-0.1-0.3-0.1-0.5c-0.2-0.1-0.7,0-1.3,0.1c1.1,1.5,1.8,2.9,2.1,4.2C-226.4-51.6-226-52.8-225.3-53.4z M-219.8-55.4l-0.7-0.5
		l-1.7,2.4l0.7,0.5L-219.8-55.4z M-217.8-26.8l-2.5,0.3c1.5,0.7,2.3,1.4,2.4,1.8C-217.6-25.3-217.5-26-217.8-26.8z M-215.6-20
		l-1.4-4.3c-2.1,0.7-3.2,1.1-3.3,1.3c1.6,0.7,2.5,1.4,2.5,2.2l0.9-1.4c0.4,0.2,0.6,0.4,0.5,0.6c-0.9,0.8-2,1.8-3.3,3.1l0.6,1.8
		c0.3-0.1,0.7,0,1.3,0.2c0.5-0.4,1-1,1.4-1.9C-216.1-19.2-215.8-19.8-215.6-20z M-214.8-56.3l-0.3-0.8l-2.7,1.5l0.3,0.8L-214.8-56.3
		z M-209.1-23.6l-0.8-2.4c-0.4,0.1-0.6,0.8-0.8,2.1C-210.3-23.7-209.7-23.6-209.1-23.6z M-205.3,11.3c-0.3,1.7-0.9,2.6-1.7,2.9
		c-0.4,0.1-0.8,0.2-1.3,0.1l-0.8,0l-1-4.5c0.2-0.1,0.8,0.4,1.8,1.5c0.2-0.3,0.1-0.8-0.1-1.6L-206,9L-205.3,11.3z M-206.9-59.2
		l-1.5-2c-0.7,1.2-1,2-0.8,2.6c0.1,0.2,0.2,0.4,0.5,0.8c0.2,0.3,0.4,0.6,0.4,0.9C-208.1-57.1-207.6-57.8-206.9-59.2z M-189,1.9
		c-0.2,0-0.5,0-0.8,0.1c-0.9,0.3-1.8,1.1-2.8,2.3c0.3-0.1,0.8,0,1.4,0.3C-190.1,3.6-189.3,2.7-189,1.9z M-183.9,0.9
		c-0.2-0.7-1.1-1.4-2.5-2.1c-0.6,0.7-1.5,1.6-2.7,2.8c0.2-0.1,0.5,0.1,0.6,0.4c0.1,0.4,0.2,0.7,0.2,0.9c0.5,0.2,0.8,0.4,0.8,0.8
		c-0.2,0.9-0.2,1.6,0,2c0.1-0.2,0.2-0.3,0.3-0.3c0.1,0,0.3,0,0.4,0.1c0.3,0.7,0.8,1.5,1.6,2.3c0.3-0.1,0.7-0.3,1.3-0.7
		c0.6-0.4,1-0.6,1.2-0.7c-0.1-0.3-0.2-0.7-0.3-1.3c-0.2-0.2-0.4-0.5-0.5-0.8c-0.1-0.4-0.2-0.9-0.2-1.7
		C-183.7,1.7-183.8,1.2-183.9,0.9z"/>
	<path class="st1" d="M-147.3-62.8c2.2,6.7,2.2,12.8-0.1,18.4c-2.4,6-6.8,10-13.3,12.2c-2.1,0.7-4.9,1.4-8.4,2.2
		c5.4,14.2,9.6,24.7,12.6,31.7c-1.4,1.4-4.6,2.9-9.5,4.5l-3.3,1.1c-0.8,0.1-1.6-0.1-2.5-0.7c-0.9-0.6-1.5-1.3-1.8-2
		c-1.6-4.1-2.2-7-1.9-8.9c-0.1,0.2-0.2,0.3-0.2,0.3c-0.2,0.1-0.4-0.2-0.5-0.6l-6.2-18.8c0.3,0.8-1.3-2.7-4.6-10.5
		c-3.9-9.2-6.4-15.4-7.5-18.7l-3.1-9.4c0-0.1-0.3-0.4-0.8-1c-0.5-0.5-0.8-1-0.9-1.3c-0.1-0.4-0.1-0.8,0-1.2l0.2-0.5
		c-0.2-0.5-0.4-0.9-0.6-1.4c-0.2-0.5-0.3-1-0.4-1.5c0.6-1.3,1.7-3,3.3-5c1.1-0.9,3.6-2,7.5-3.3c0.9-0.3,2.3-0.5,4.2-0.5
		c1.9-0.1,3.3-0.2,4.2-0.5c0.8-0.3,1.9-1,3.4-2.2c1.5-1.2,2.6-2,3.4-2.2c2.2-0.7,4.7-0.7,7.6-0.1c0.9,0.2,1.9,0.7,3,1.4
		c0.9,0.7,1.8,1.4,2.7,2.1c3.6,2.4,6,4.2,7,5.5C-150.6-70.5-148.6-66.8-147.3-62.8z M-188.6-68c-0.6-0.3-1-0.8-1.2-1.4
		c-0.4,0.8-0.4,1.6-0.1,2.3c-0.2,0.1-0.5,0.1-0.8,0c-0.3-0.1-0.6-0.1-0.9,0c-0.5,0.2-0.7,0.6-0.6,1.4c0.2,0.5,0.4,0.9,0.8,1.3
		C-190.5-65.3-189.6-66.4-188.6-68z M-166.7-38.8c-0.2-0.6-0.2-0.8-0.1-0.6c-0.1-0.1-0.4-0.1-0.9,0.1c-0.3,0.1-0.4,0.3-0.3,0.7
		c0.1,0.3,0,0.6-0.3,0.7c-0.7,0.2-1.3,0.2-1.7,0c0.3,0.9,0.3,1.6-0.1,2.3c-0.1-0.7-0.6-1.5-1.4-2.3c-0.3,0.2-1,1-2.1,2.3
		c0.3-1.6,0.3-2.9,0-3.7c0,0.3,0.5,0.4,1.2,0.1c0.3-0.1,0.6-0.5,1-1.2c0.3-0.7,0.7-1.1,1-1.2c0.4-0.1,0.9-0.1,1.5-0.1
		c0.6,0.1,1,0.1,1,0.1l-14.4-17.8c-0.1,0-0.2,0.1-0.3,0.2c1.5,2,6.2,8.2,13.9,18.6c0,0.1-0.1,0.4-0.1,0.9c0,0.2,0.3,0.3,0.9,0.2
		C-167.3-39.8-166.9-39.4-166.7-38.8z M-171.1-73.1l-1.9-0.8c-0.2,0.1-0.7,0.4-1.5,0.8c-0.8,0.5-1.4,0.8-1.9,1
		c-0.7-2.4-1.9-3.5-3.6-3.4c-0.8,1.6-1.1,3.1-0.7,4.7c0.1-0.6,0.4-1,0.9-1.4c0.4-0.3,0.8-0.3,1.2-0.2c-0.7,0.8-1.1,1.7-1.2,2.7
		c0.2,0.1,0.8,0.4,1.7,0.8c0.9,0.4,1.5,0.6,2,0.4c0.4-0.1,0.7-0.6,0.7-1.5c0-1.1,0.2-1.8,0.6-2.3c0.4-0.1,1-0.1,1.6,0.2
		c0.7,0.3,1.1,0.4,1.3,0.4L-171.1-73.1z M-162.3-56.7c-0.8-2.4-1.4-3.9-1.7-4.4c-0.1-0.2-1-0.9-2.6-2.1c-0.9-0.9-2.2-1.9-4-2.9
		c-2.1-0.2-4.6,0.2-7.5,1.2c-0.4,1-0.8,2.3-1.1,3.9c0.4,1.7,1.3,4.1,2.5,7.2c1.3,3.1,2.1,5.5,2.5,7.1c0.1,0.3,0.2,0.9,0.2,1.9
		c0,1,0.1,1.6,0.3,2c1.3,0.4,3,0.2,5-0.4c3.6-1.2,5.9-2.8,6.8-4.9C-161-50.2-161.1-53.1-162.3-56.7z M-175-34.4l-0.3-0.9l-1.3,0.4
		l0.3,0.9L-175-34.4z M-167.3-34.9c-0.1,0-0.3,0.2-0.6,0.4c-0.3,0.2-0.5,0.4-0.7,0.4c-0.2,0.1-0.4,0.1-0.5,0l0.6-1.4
		c-0.2,0.1-0.5,0.2-0.9,0.5c-0.4,0.3-0.7,0.4-0.9,0.5c-0.5,0.2-0.8,0.2-0.8,0.1c0-0.1,0.1-0.2,0.2-0.3c-0.4-0.6-0.9-0.8-1.3-0.7
		l-0.4,0.4c-0.3,0.3-0.4,0.6-0.3,1c0.1,0.3,0.3,0.7,0.7,1.1c0.3,0.4,0.5,0.7,0.6,0.9l2.6-0.8c0.4-0.1,0.8-0.3,1.3-0.8
		C-167.4-34.1-167.2-34.5-167.3-34.9z M-170.5-29.3l-0.3-0.8l-1.4,0.5l0.3,0.8L-170.5-29.3z M-167.8-73.2l-0.3-0.8l-1.8,0.6l0.3,0.8
		L-167.8-73.2z M-167.2-37l-0.8,0l-0.2,1.5l0.9,0.1L-167.2-37z M-161.4-73.7l-0.3-0.8l-1.8,0.6l0.3,0.8L-161.4-73.7z M-158.5-47.3
		l-0.4-1.3l-0.8,0.3l0.4,1.3L-158.5-47.3z M-154-55.3l-0.6-0.5l-0.9,0.9l0.2,0.7L-154-55.3z M-151.1-49.2c-0.5-0.5-0.9-1-1.1-1.6
		l-1.8,0.6C-153.1-49.2-152.1-48.9-151.1-49.2z M-148.8-45.6l-0.6-1.8c-0.5,0.3-1.3,0-2.5-0.8l-1.6,0.5c0.3,0,0.7,0.2,1,0.5
		c0,0.3,0,1-0.1,1.9c-0.1,1-0.1,1.7,0.1,2.2c0-0.8,0.5-1.4,1.3-1.8C-150.4-45.1-149.6-45.3-148.8-45.6z"/>
	<path class="st1" d="M-91.1-53.6l-0.3,0.8l1,2.9c0.1,0.3,0.3,0.8,0.6,1.4c0.3,0.7,0.5,1.1,0.6,1.4c4.5,13.7,3.6,23-2.8,28
		c-1.8,1.4-5.6,3-11.4,4.9c-4.2,1.4-7.2,1.9-9.1,1.8c-5.5-0.6-10-3.2-13.7-7.8c-3.4-4.2-7.3-13.2-11.8-27c-1.7-5.2-3.2-9.8-4.4-13.9
		c-1.5-5.3-2.3-10.1-2.2-14.3c0.2-7.6,3.1-12.8,8.8-15.7c2.7-1.3,6.5-2.9,11.6-4.5c2.5-0.8,5.4-0.6,8.7,0.7
		c7.1,2.8,12.7,9.6,16.6,20.3l4.6,12.4c0.2,0.5,0.3,1.6,0.5,3.3c0.1,1.1,0.2,2,0.4,2.6c0.2,0.7,0.7,1.3,1.3,1.8L-91.1-53.6z
		 M-128.6-42.4l-0.8,0l-0.2,1.5l0.8,0L-128.6-42.4z M-104-46.1c-4.6-14-8.4-24.2-11.4-30.7c-0.6-1.3-2-2.3-4.2-3
		c-2.2-0.7-3.9-0.8-5.3-0.4c-2.8,0.9-4.3,3.3-4.5,7.3c-0.2,2.8,0.3,5.9,1.5,9.4c0.6,1.8,1.5,4.1,2.7,6.8c1.4,3.5,2.3,5.8,2.8,6.9
		c2.1,5.7,3.6,10,4.2,12.9c0.8,3.5,3,7.1,6.6,10.6c2,0.2,3.8,0.1,5.4-0.5c3.5-1.2,5.1-4.1,4.8-8.8C-101.7-37.8-102.5-41.4-104-46.1z
		 M-124.4-86l-1.8-3.2c-0.5,1-1.3,1.6-2.4,2l1.3,3.8L-124.4-86z M-126.4-34.1l-0.6-1.8l-0.9,0.3l0.6,1.8L-126.4-34.1z M-123.9-30.7
		l-0.3-0.9l-1.8,0.6l0.3,0.9L-123.9-30.7z M-122.9-24.7l-0.5-0.6l-1,0.9l0.2,0.7L-122.9-24.7z M-113.8-86.4l-0.8,0l-0.2,1.5l0.8,0
		L-113.8-86.4z M-110.4-80.2c-1.4,0.2-2.2-0.2-2.5-1.2c-0.5-1.3-0.9-2.1-1.2-2.4c-0.3-0.8-0.2-0.3,0.2,1.4c0.4,1.7,0.6,2.8,0.7,3.1
		L-110.4-80.2z M-111.5-77.3l-1-0.6l-0.4,0.7l1,0.5L-111.5-77.3z M-108.4-82.4l-0.6-1.8c-0.1,0-0.6-0.2-1.2-0.5
		c-0.7-0.3-1.1-0.5-1.1-0.4c0.2,0.7,0.2,1.4-0.1,2c0.3,0,0.8,0.1,1.6,0.4C-108.9-82.5-108.5-82.3-108.4-82.4z M-105.4-23.1l-2.9,1
		c0.4,0.2,0.6,0.4,0.7,0.5c0.1,0.2-0.1,0.3-0.6,0.5l-1.1-0.6c0.4-0.8,0.5-1.6,0.2-2.4c-0.9,0.3-1.4,0.7-1.7,1.2
		c0.9,1.3,2,3.1,3.4,5.3c0.4-1.1,0.4-2.2,0-3.4c0.3-0.1,0.7-0.1,1.3,0.1c0.6,0.2,0.9,0.3,0.9,0.2C-105.6-21.8-105.7-22.6-105.4-23.1
		z M-105.6-63l-0.6-1.8l-0.8,0.3l0.6,1.8L-105.6-63z M-98.7-32.6c-1.1,2.1-1.4,3.8-1,5c0.3,0.8,1,1,2.3,0.6
		c-0.1-0.4-0.2-0.9-0.2-1.8c0-0.8-0.1-1.4-0.2-1.7c-0.1-0.4-0.3-0.7-0.6-0.9C-98.4-31.7-98.5-32.1-98.7-32.6z M-97.6-36.1l-0.3-0.8
		l-1.3,0.4l0.3,0.8L-97.6-36.1z M-96.8-24.3l-0.7,0.2l-0.1,2.4l0.9,0.1L-96.8-24.3z"/>
	<path class="st1" d="M-31.3-39.9c-0.4,1.4-2.9,2.8-7.4,4.3c-4.4,1.4-8.1,0.4-11.2-3c-1.8-2.6-4.5-6.4-8.2-11.5
		c-5.6-7-9-10.3-10.3-9.9c-0.7,0.2-1.5,0.8-2.4,1.8c-0.4,1.5,0.4,5.2,2.5,10.9c0.8,2.2,2.1,5.9,3.9,11.1c0.3,0.9,0.9,2.3,1.7,4.2
		c0.8,1.9,1.4,3.3,1.8,4.3c-2.8,1.3-6.8,2.9-12.1,4.6c-1.6-1.6-3-3.9-4.1-6.7c-4.5-11.5-9.2-24.3-14.2-38.5l-8.4-24.1
		c-0.8-2.1-1.2-3.7-1.2-4.7c-0.2-1.9,0.7-3.2,2.6-3.8c0.4-0.1,0.9-0.2,1.7-0.3c0.8,0,1.3-0.1,1.7-0.3c0.7-0.2,1.7-0.8,3-1.8
		c1.3-1,2.3-1.6,3-1.8c0.7-0.2,2-0.4,3.7-0.4c1.8,0,3-0.1,3.7-0.4c0.2-0.1,0.5-0.4,1-0.9c0.5-0.5,0.9-0.8,1.2-0.9
		c6.9-2.3,12.9-1.4,18,2.6c4.4,3.4,7.7,8.7,10.1,16c1.6,4.8,2.1,8.9,1.5,12.3c-0.3,1.9-1.2,4-2.7,6.4c-1.1,1.8-1.5,3.2-1.1,4.2
		c0.1,0.4,0.9,1.3,2.4,2.6c0.9,0.8,1.8,1.7,2.9,2.7c2.1,3,5,7.1,8.7,12C-37.7-46.9-35-43.9-31.3-39.9z M-89.9-82l-0.3-0.8l-1.8,0.6
		l0.3,0.8L-89.9-82z M-90.3-97.8l-0.8,0l-0.2,1.5l0.7,0.1L-90.3-97.8z M-89-93.5l-0.7,0.2l0.7,5.6l0.7-0.2L-89-93.5z M-87-78.4
		c-0.4-0.1-0.8,0-1.1,0.1c-0.5,0.2-0.9,0.5-1.2,1.1l0.6,1.7c0.3-0.2,0.6-0.8,1-1.6C-87.4-77.9-87.2-78.4-87-78.4z M-84-65.8
		l-0.3-0.8l-1.4,0.5l0.3,0.8L-84-65.8z M-66-86.7c-1.2-3.8-2.6-6-4.1-6.7c-0.2-0.1-0.8-0.3-1.7-0.6c-4.5,0.2-7.1,0.4-7.6,0.6
		c-0.2,0.1-1.3,0.8-3.3,1.9c-0.1,0.4-0.4,1-0.7,1.8c1.3,4,3.1,8.1,5.4,12.2c0.3,0.5,0.5,1.2,0.7,2.2c0.2,1,0.4,1.8,0.5,2.3
		c0.4,1.3,1.3,2.1,2.5,2.2c7.6-1.8,10.8-6.1,9.5-12.7C-64.8-83.1-65.1-84.2-66-86.7z M-80.4-102.9l-0.8,0.3l0.1,2.5l0.9-0.3
		L-80.4-102.9z M-77-102l-2.1,0.1l0.2,0.7l1.8,0L-77-102z M-71.4-68.7l-0.8,0l-0.2,1.5l0.8,0L-71.4-68.7z M-71.1-66.9
		c-0.8,0.8-1,1.7-0.7,2.6c0.1,0.4,0.4,0.8,0.8,1.4c0.4,0.6,0.7,0.9,0.7,1.1C-70-62.6-70.3-64.3-71.1-66.9z M-64.2-93.7l-0.8,0
		l-0.2,1.5l0.8,0L-64.2-93.7z M-62.9-89.6l-0.6-1.8l-0.8,0.3l0.6,1.8L-62.9-89.6z M-54.6-55.1l-0.3-0.8l-1.8,0.6l0.3,0.8L-54.6-55.1
		z M-41-45.5l-0.6-1.8c-0.9-0.1-2-0.5-3.3-1.2c0.3,0.8,0.2,1.5-0.1,2.1c0.4-0.1,1.2,0,2.2,0.4C-41.8-45.7-41.2-45.5-41-45.5z"/>
	<path class="st1" d="M-10.4-121.2c0.6,1.8,0.3,2.8-0.9,3.2c-0.6,0.2-1.5,0.3-2.7,0.4c-1.4,0.1-2.4,0.2-2.7,0.3
		c-2.3,0.7-4.7,1.4-7.1,2.2c-0.9,0.3-1.7,1.2-2.5,2.6c0,0.1,0.2,0.3,0.5,0.6c0.3,0.3,0.5,0.6,0.6,0.9L-15-83.8
		c1.6,4.3,3.3,8.5,4.9,12.5c1.5,3.2,4.3,9.6,8.4,19.1c0,0.1,0.2,0.3,0.5,0.6c0.3,0.3,0.6,0.6,0.7,0.9c0.3,1-0.1,2.1-1.2,3
		C-2.6-47-3.6-46.4-4.8-46c-0.2,0.1-0.6,0.1-1.1,0.2c-0.5,0-0.9,0.1-1.1,0.2c-0.2,0.1-0.4,0.3-0.4,0.7c0,0.4-0.1,0.6-0.3,0.7
		c-0.2,0.1-0.5,0-0.9-0.1c-0.4-0.1-0.7-0.2-0.9-0.1c-0.2,0.1-0.3,0.2-0.2,0.5c0.1,0.2,0,0.4-0.2,0.5c-0.2,0.1-1.3,0.1-3.3,0
		c-1.9-0.1-3.1-0.2-3.5-0.2c-0.1-1.5-0.3-2.5-0.5-2.9l0.2-0.5c-0.1-0.3-0.2-0.4-0.4-0.3c-0.2,0.1-0.3,0.1-0.4,0
		c0.1-0.4,0.1-0.8,0-1.3c-0.2-0.5-1.1-1.9-2.7-4c0.1-0.8,0.1-1.4-0.1-1.8c-0.1-0.2-0.4-0.7-1-1.4c-0.2-0.8-0.6-1.9-1.2-3.3
		c-0.6-1.4-1-2.4-1.2-2.9c-2.2-6.7-5.7-16.8-10.4-30.5c0-0.1-0.2-0.4-0.5-0.7c-0.3-0.3-0.5-0.6-0.5-0.9c-0.3-0.9-1.3-4.8-3.1-12
		c-0.2-0.9-0.8-1.5-1.8-1.9c-1.6,0.5-4.1,1.6-7.4,3l-4.9,2.2c-0.9,0.3-2,0.1-3.3-0.7c-0.4-1.3-0.9-2.4-1.3-3.4
		c-0.1,0.1-0.2,0.2-0.3,0.2c-0.2,0.1-0.3-0.1-0.5-0.5c-0.6-1.8-0.7-3.8-0.4-5.9c0.3-2.7,1.3-4.3,2.8-4.8c0.5-0.2,1.5-0.2,2.9-0.2
		c1.5,0.1,2.5,0,2.9-0.2c0.2-0.1,1.1-0.7,2.5-1.9c1.4-1.2,2.5-1.9,3.2-2.2c2.4-0.8,6.1-2.1,11.1-3.9c-0.1-0.4,0.1-0.8,0.8-1
		c0.2-0.1,0.7,0,1.2,0.1c0.9,0.3,1.5,0.5,1.9,0.4l1.9-0.6c2.1-0.7,3.6-1.4,4.3-2.2l1-1c0.4-0.1,1.2-0.1,2.6-0.1
		c1.3,0.1,2.1,0.2,2.3,0.3c0.9,0.5,2.1,1.3,3.6,2.6C-12.3-126.2-11.3-124-10.4-121.2z M-49.7-110.1l-0.5-1.4c0,0.1-1.1,0.5-3.1,1.1
		c0.7,2.2,1.5,3.6,2.3,4.2c0-0.3,0.1-1.1,0.1-2.2C-50.8-109-50.4-109.6-49.7-110.1z M-46.6-110.2l-0.2-0.5l-1,0.3l0.2,0.5
		L-46.6-110.2z M-40.8-111c-0.2-0.5-0.5-1.4-0.9-2.4c-0.5-1.1-0.8-1.9-0.9-2.4c-0.2,0.3-0.5,0.6-1,0.7c-0.3,0.1-0.7,0-1.3-0.2
		c-0.6-0.2-0.9-0.4-1-0.7c0.8,1.5,1.3,2.8,1.7,4c0.2,0.7,0.4,1.3,0.5,1.9c0.1,0,0.4-0.3,0.7-0.6c0.3-0.4,0.6-0.6,0.7-0.6
		c-0.9-0.7-1.4-1.4-1.6-2c-0.2-0.5-0.1-1,0.3-1.4C-42.5-113.6-41.5-112.4-40.8-111z M-33.5-114.5c-0.3-1-1.3-2.2-3-3.5
		c0.4,1.2,0.4,2.2,0,2.9c0.5,0,1.4,1.1,2.8,3.2C-33.4-113.2-33.4-114.1-33.5-114.5z M-31.7-112.4l-0.2-0.5l-1,0.3l0.2,0.5
		L-31.7-112.4z M-28.4-98.4c-0.3-0.2-0.7-0.7-0.9-1.3c-0.3-0.7-0.5-1.1-0.6-1.2c-0.7,0.2-0.8,1.1-0.3,2.5c0.4,1.1,0.9,1.5,1.5,1.3
		C-28.3-97.9-28.2-98.3-28.4-98.4z M-12.5-120.5c-1.3-2.8-2-4.6-2.2-5.4c-0.2,0.1-0.7,0.1-1.3,0c-0.6-0.1-1.1-0.1-1.4,0
		c-0.5,0.2-1.2,0.5-2.2,1c-1,0.5-1.7,0.8-2.2,1c0.2,0.7,0.3,1.2,0.2,1.5c-1.2-0.7-2.2-0.9-2.8-0.7c-1.8,0.6-3.2,1.2-4.4,2
		c0.2,0.1,0.3,0.2,0.4,0.5c0.1,0.2,0.1,0.6,0,1c0.4,0.1,0.9,0.4,1.4,0.9c0.4,0.7,0.3,1.5-0.2,2.4c0.1,0,0.3-0.2,0.6-0.5
		c0.3-0.3,0.6-0.6,0.9-0.7c0.2-0.1,0.8,0.1,1.8,0.6c0.9,0.5,1.5,0.7,1.8,0.6c0.3-0.1,0.8-0.5,1.5-1.1c0.7-0.6,1.2-1,1.6-1.1
		c-0.4-1-0.5-1.7-0.4-2.1c0.6,0.3,0.9,0.6,1.1,0.9c-0.2-0.5-0.2-0.1,0.2,1.3c1.2-0.2,2.3-0.4,3.2-0.7
		C-13.9-119.7-13.1-120-12.5-120.5z M-26.4-91.6c-0.5-0.5-1.2-0.9-1.9-1.3l0.6,1.7L-26.4-91.6z M-22.3-73.6l-0.2,1.1l-0.6,0l0.2-1.1
		L-22.3-73.6z M-19.9-68c-0.5-0.2-1.2-0.5-2.1-0.8c0.2,0.5,0.2,1,0,1.4l1.2-0.4C-20.3-67.9-19.9-68-19.9-68z M-20-119.5l-0.7-2
		c-0.1,0-0.2,0.3-0.3,0.7c-0.1,0.4-0.2,0.7-0.3,0.8C-20.8-120.2-20.3-120-20-119.5z M-19.3-65.3l-0.6-0.4l-0.2,0.5l0.6,0.3
		L-19.3-65.3z M-7.4-57.7l-0.3-0.9l-0.5,0.2l0.3,0.9L-7.4-57.7z"/>
</g>
<g>
	<path class="st2" d="M80,72.9c3.1,2.3,12.9,3.5,29.5,3.5l-0.1,1.8H97.1L97,79.9c14.7,0,23.8,3.5,27.5,10.5l-0.2,3.5h-8.8l-0.1,1.8
		l12.2,1.8l-0.1,1.8h-10.5l-0.1,1.8c3.5,0,5.2,1.2,5.1,3.5c-20.9,0-39.5,7.6-55.9,22.8l-0.1,1.8c22.6,6.1,40.6,19.5,53.8,40.4
		l-0.1,1.8c-4.3,15.1-16.2,29.2-35.8,42.1L73,215.1l-0.1,1.8h3.5c-0.1,3.2-10.9,6.7-32.2,10.5l0.2-3.5h8.8l0.2-1.8
		c-7.5,0-14.3-4.1-20.3-12.3c-5.2-2.7-7.8-7.8-7.8-15.4c0-0.7,0-1.4,0.1-2.2l5.5-3.5l5.1,3.5h3.5c33-5.2,50.1-15.7,51.1-31.6
		c-13.8-7-23-10.5-27.5-10.5l-0.1,1.8l-17.2-7l1.7,1.8l-0.1,3.5c-14.6-10.7-21.7-18.9-21.4-24.6L39.6,101l9.2-7l-0.2,3.5L80,72.9z
		 M55.4,218.6l-0.1,1.8h7l8.9-1.8v-1.8h-1.8L55.4,218.6z M56,120.3l-0.1,1.8l31-19.3l14.2-3.5l0.2-3.5h-3.5
		C79.3,102.6,65.4,110.8,56,120.3z M65.7,192.3h1.8l3.7-3.5h-1.8L65.7,192.3z M75.3,206.3v1.8h1.8l7.3-5.3L75.3,206.3z M97.3,192.3
		l-7.5,8.8h1.8l7.5-8.8H97.3z"/>
	<path class="st2" d="M148.5,74.5h1.8v5.3h1.8v-3.5h7c2.3,0,3.5,3.5,3.5,10.5l5.3,1.8c0-3.5,1.2-5.3,3.5-5.3l1.8,1.8v1.8l-8.8,47.4
		l26.3-1.8h17.6l1.8-8.8l-1.8-1.8h3.5l-1.8-12.3v-1.8h3.5l-1.8-1.8v-3.5h3.5V99h-3.5v-1.8h3.5l-1.8-1.8V83.3l1.8,1.8h1.8v-7
		l-1.8-1.8v-1.8h5.3l-8.8,59.7c2.3,0,5.8-19.3,10.5-57.9l7-1.8c1.2,9.4,2.9,14,5.3,14h1.8c0-3.5,1.2-5.3,3.5-5.3h1.8
		c-5.8,40.5-14.6,87.9-26.3,142.2h-1.8l-1.8-1.8l1.8-1.8v-14h-1.8l-5.3,17.6h-5.3c-2.3,0-3.5-3.5-3.5-10.5h-1.8v7h-1.8
		c-2.3,0-3.5-1.8-3.5-5.3c0-8.5,3.5-28.4,10.5-59.7h-1.8l-22.8,1.8l-15.8-1.8c-3.5,28.1-7,46.8-10.5,56.2H145c-2.3,0-3.5-4.7-3.5-14
		h-1.8l-1.8,12.3l-3.5-3.5v-5.3l1.8-1.8v-1.8l-1.8-1.8h-1.8l-1.8,1.8h-1.8l-1.8-7c4.7-39.5,9.9-68.2,15.8-86h1.8l-1.8-1.8V99
		l5.3-19.3h-1.8L148.5,74.5z M129.2,200.8h1.8v8.8h-1.8V200.8z M139.7,141.2v7h1.8v-7H139.7z M143.2,123.6l-1.8,8.8v1.8h1.8l1.8-7
		v-3.5H143.2z M145,114.8v7h1.8v-7H145z M148.5,95.5l-1.8,14v3.5h1.8l1.8-14v-3.5H148.5z M150.3,81.5v12.3h1.8V81.5H150.3z
		 M202.9,172.8v7h1.8v-7H202.9z M206.4,158.7l-1.8,10.5v1.8h1.8l1.8-8.8v-3.5H206.4z M215.2,192.1l-1.8,8.8v5.3h1.8l1.8-12.3v-1.8
		H215.2z"/>
	<path class="st2" d="M320.1,75c13.8,0,26.6,4.1,38.6,12.3L357,89v1.8l7,10.5h-3.5l-1.8-1.8H357l5.3,38.6h1.8c0-5.8,1.2-8.8,3.5-8.8
		v7c0,6.6-5.9,21.8-17.6,45.6h1.8c-8.3,11.4-20.5,21.9-36.9,31.6l-8.8,1.8h-1.8c-27.8,0-45.4-11.1-52.7-33.3l-7-10.5l1.8-1.8
		l-1.8-12.3V154c0-9.7,9.4-26.7,28.1-50.9v1.8c-8.6,11.6-15.6,24.4-21.1,38.6v1.8h1.8c4.3-17.1,20.1-38.8,47.4-64.9l-12.3,7h-1.8
		C286.8,81.9,297.9,77.8,320.1,75z M249.9,154v14h1.8v-14H249.9z M272.7,129.4l-5.3,10.5h1.8l5.3-10.5H272.7z M311.3,104.8l-1.8-1.8
		v1.8l1.8,1.8L299,117.1c-9.7,0-19.1,16.4-28.1,49.1c0,9.4,5.3,17.6,15.8,24.6h1.8c12.8,0,27.4-13.5,43.9-40.4
		c5.8-12.8,8.8-22.2,8.8-28.1v-14c0-3.2-5.9-5.6-17.6-7h-1.8l-1.8,1.8h-1.8v-1.8L311.3,104.8z M276.2,197.9v1.8l8.8,5.3v-1.8
		L276.2,197.9z M332.4,159.2l-7,8.8h1.8l7-8.8H332.4z M341.2,139.9l-7,17.6h5.3l5.3-12.3l-1.8-5.3H341.2z M353.5,147l-1.8,5.3v3.5
		h1.8l1.8-7V147H353.5z M362.2,110.1h3.5v8.8h-3.5V110.1z"/>
	<path class="st2" d="M391.7,68.4l1.7,1.8v1.8l1.8-1.8h8.8c2.3,0,3.4,2.9,3.3,8.8h1.8c0.1-3.5,1.4-5.3,3.7-5.3
		c2.3,0,3.4,1.8,3.3,5.3l12.4-1.8l18.8,3.5l7-1.8c8.9,0,15.8,4.7,20.6,14l-1.9,12.3l1.7,1.8v1.8l-3.8,10.5H469l0.1-3.5h-1.8
		c-9.1,22-21.9,37.2-38.4,45.6l-28.5,12.3l-0.9,29.8l1.4,8.8c-2.3,0-5.5,5.8-9.4,17.6l-1.8,1.8H388l-13.8-7l2.3-14l-5.1-7l4.3-24.6
		l-1.8-1.8l6.4-33.3l-1.8-1.8l1.9-1.8h3.5l-0.2,7h1.8l0.3-8.8l-1.5-5.3h3.5l0.2-8.8l-3.4-3.5l-0.2,7h-1.8c0.3-7.4-3-13.3-9.9-17.6
		l-1.4-10.5l0.3-7c15.3-6.3,23.1-10.4,23.1-12.3l0.1-1.8l-3.4-3.5l-1.8,1.8l-1.7-7l1.9-1.8H391.7z M380.3,149.1l-0.1,1.8l1.7,1.8
		l-1.8,1.8l-0.2,3.5h3.5l0.4-8.8H380.3z M451.6,112.3c-3.7,6.6-18.7,16.6-44.9,29.8l-1.8,1.8v1.8h3.5c17.3-5.3,32.2-16.4,44.9-33.3
		H451.6z M406.9,136.8h3.5c15.1-6.3,28.3-16.9,39.6-31.6h-5.3c-23.5,1.6-35.3,5.1-35.4,10.5L406.9,136.8z"/>
</g>
</svg>
